%!PS-Adobe-3.0
%%Creator: graphviz version 2.40.1 (20161225.0304)
%%Title: model_graph
%%Pages: (atend)
%%BoundingBox: (atend)
%%EndComments
save
%%BeginProlog
/DotDict 200 dict def
DotDict begin

/setupLatin1 {
mark
/EncodingVector 256 array def
 EncodingVector 0

ISOLatin1Encoding 0 255 getinterval putinterval
EncodingVector 45 /hyphen put

% Set up ISO Latin 1 character encoding
/starnetISO {
        dup dup findfont dup length dict begin
        { 1 index /FID ne { def }{ pop pop } ifelse
        } forall
        /Encoding EncodingVector def
        currentdict end definefont
} def
/Times-Roman starnetISO def
/Times-Italic starnetISO def
/Times-Bold starnetISO def
/Times-BoldItalic starnetISO def
/Helvetica starnetISO def
/Helvetica-Oblique starnetISO def
/Helvetica-Bold starnetISO def
/Helvetica-BoldOblique starnetISO def
/Courier starnetISO def
/Courier-Oblique starnetISO def
/Courier-Bold starnetISO def
/Courier-BoldOblique starnetISO def
cleartomark
} bind def

%%BeginResource: procset graphviz 0 0
/coord-font-family /Times-Roman def
/default-font-family /Times-Roman def
/coordfont coord-font-family findfont 8 scalefont def

/InvScaleFactor 1.0 def
/set_scale {
       dup 1 exch div /InvScaleFactor exch def
       scale
} bind def

% styles
/solid { [] 0 setdash } bind def
/dashed { [9 InvScaleFactor mul dup ] 0 setdash } bind def
/dotted { [1 InvScaleFactor mul 6 InvScaleFactor mul] 0 setdash } bind def
/invis {/fill {newpath} def /stroke {newpath} def /show {pop newpath} def} bind def
/bold { 2 setlinewidth } bind def
/filled { } bind def
/unfilled { } bind def
/rounded { } bind def
/diagonals { } bind def
/tapered { } bind def

% hooks for setting color 
/nodecolor { sethsbcolor } bind def
/edgecolor { sethsbcolor } bind def
/graphcolor { sethsbcolor } bind def
/nopcolor {pop pop pop} bind def

/beginpage {	% i j npages
	/npages exch def
	/j exch def
	/i exch def
	/str 10 string def
	npages 1 gt {
		gsave
			coordfont setfont
			0 0 moveto
			(\() show i str cvs show (,) show j str cvs show (\)) show
		grestore
	} if
} bind def

/set_font {
	findfont exch
	scalefont setfont
} def

% draw text fitted to its expected width
/alignedtext {			% width text
	/text exch def
	/width exch def
	gsave
		width 0 gt {
			[] 0 setdash
			text stringwidth pop width exch sub text length div 0 text ashow
		} if
	grestore
} def

/boxprim {				% xcorner ycorner xsize ysize
		4 2 roll
		moveto
		2 copy
		exch 0 rlineto
		0 exch rlineto
		pop neg 0 rlineto
		closepath
} bind def

/ellipse_path {
	/ry exch def
	/rx exch def
	/y exch def
	/x exch def
	matrix currentmatrix
	newpath
	x y translate
	rx ry scale
	0 0 1 0 360 arc
	setmatrix
} bind def

/endpage { showpage } bind def
/showpage { } def

/layercolorseq
	[	% layer color sequence - darkest to lightest
		[0 0 0]
		[.2 .8 .8]
		[.4 .8 .8]
		[.6 .8 .8]
		[.8 .8 .8]
	]
def

/layerlen layercolorseq length def

/setlayer {/maxlayer exch def /curlayer exch def
	layercolorseq curlayer 1 sub layerlen mod get
	aload pop sethsbcolor
	/nodecolor {nopcolor} def
	/edgecolor {nopcolor} def
	/graphcolor {nopcolor} def
} bind def

/onlayer { curlayer ne {invis} if } def

/onlayers {
	/myupper exch def
	/mylower exch def
	curlayer mylower lt
	curlayer myupper gt
	or
	{invis} if
} def

/curlayer 0 def

%%EndResource
%%EndProlog
%%BeginSetup
14 default-font-family set_font
% /arrowlength 10 def
% /arrowwidth 5 def

% make sure pdfmark is harmless for PS-interpreters other than Distiller
/pdfmark where {pop} {userdict /pdfmark /cleartomark load put} ifelse
% make '<<' and '>>' safe on PS Level 1 devices
/languagelevel where {pop languagelevel}{1} ifelse
2 lt {
    userdict (<<) cvn ([) cvn load put
    userdict (>>) cvn ([) cvn load put
} if

%%EndSetup
setupLatin1
%%Page: 1 1
%%PageBoundingBox: 36 36 1952 1965
%%PageOrientation: Portrait
0 0 1 beginpage
gsave
36 36 1916 1929 boxprim clip newpath
1 1 set_scale 0 rotate 40 40 translate
% cluster_django_contrib_auth
gsave
1 setlinewidth
0.21961 0.75294 0.5451 graphcolor
newpath 641 148 moveto
641 148 1233 148 1233 148 curveto
1239 148 1245 154 1245 160 curveto
1245 160 1245 834 1245 834 curveto
1245 840 1239 846 1233 846 curveto
1233 846 641 846 641 846 curveto
635 846 629 840 629 834 curveto
629 834 629 160 629 160 curveto
629 154 635 148 641 148 curveto
stroke
0 0 0 graphcolor
8 /Roboto set_font
821 830.5 moveto 31 (          ) alignedtext
0 0 0 graphcolor
10 /Roboto set_font
852 830.5 moveto 31 (          ) alignedtext
0 0 0 graphcolor
10 /Roboto set_font
883 830.5 moveto 108 (django.contrib.auth) alignedtext
0 0 0 graphcolor
10 /Roboto set_font
991 830.5 moveto 31 (          ) alignedtext
0 0 0 graphcolor
8 /Roboto set_font
1022 830.5 moveto 31 (          ) alignedtext
grestore
% cluster_django_contrib_contenttypes
gsave
1 setlinewidth
0.21961 0.75294 0.5451 graphcolor
newpath 295 8 moveto
295 8 575 8 575 8 curveto
581 8 587 14 587 20 curveto
587 20 587 109 587 109 curveto
587 115 581 121 575 121 curveto
575 121 295 121 295 121 curveto
289 121 283 115 283 109 curveto
283 109 283 20 283 20 curveto
283 14 289 8 295 8 curveto
stroke
0 0 0 graphcolor
8 /Roboto set_font
295.5 105.5 moveto 31 (          ) alignedtext
0 0 0 graphcolor
10 /Roboto set_font
326.5 105.5 moveto 31 (          ) alignedtext
0 0 0 graphcolor
10 /Roboto set_font
357.5 105.5 moveto 155 (django.contrib.contenttypes) alignedtext
0 0 0 graphcolor
10 /Roboto set_font
512.5 105.5 moveto 31 (          ) alignedtext
0 0 0 graphcolor
8 /Roboto set_font
543.5 105.5 moveto 31 (          ) alignedtext
grestore
% cluster_django_contrib_sessions
gsave
1 setlinewidth
0.21961 0.75294 0.5451 graphcolor
newpath 1634 1436 moveto
1634 1436 1888 1436 1888 1436 curveto
1894 1436 1900 1442 1900 1448 curveto
1900 1448 1900 1820.5 1900 1820.5 curveto
1900 1826.5 1894 1832.5 1888 1832.5 curveto
1888 1832.5 1634 1832.5 1634 1832.5 curveto
1628 1832.5 1622 1826.5 1622 1820.5 curveto
1622 1820.5 1622 1448 1622 1448 curveto
1622 1442 1628 1436 1634 1436 curveto
stroke
0 0 0 graphcolor
8 /Roboto set_font
1634 1817 moveto 31 (          ) alignedtext
0 0 0 graphcolor
10 /Roboto set_font
1665 1817 moveto 31 (          ) alignedtext
0 0 0 graphcolor
10 /Roboto set_font
1696 1817 moveto 130 (django.contrib.sessions) alignedtext
0 0 0 graphcolor
10 /Roboto set_font
1826 1817 moveto 31 (          ) alignedtext
0 0 0 graphcolor
8 /Roboto set_font
1857 1817 moveto 31 (          ) alignedtext
grestore
% cluster_openlink_app
gsave
1 setlinewidth
0.21961 0.75294 0.5451 graphcolor
newpath 326 873 moveto
326 873 1478 873 1478 873 curveto
1484 873 1490 879 1490 885 curveto
1490 885 1490 1900.5 1490 1900.5 curveto
1490 1906.5 1484 1912.5 1478 1912.5 curveto
1478 1912.5 326 1912.5 326 1912.5 curveto
320 1912.5 314 1906.5 314 1900.5 curveto
314 1900.5 314 885 314 885 curveto
314 879 320 873 326 873 curveto
stroke
0 0 0 graphcolor
8 /Roboto set_font
803.5 1897 moveto 31 (          ) alignedtext
0 0 0 graphcolor
10 /Roboto set_font
834.5 1897 moveto 31 (          ) alignedtext
0 0 0 graphcolor
10 /Roboto set_font
865.5 1897 moveto 73 (openlink_app) alignedtext
0 0 0 graphcolor
10 /Roboto set_font
938.5 1897 moveto 31 (          ) alignedtext
0 0 0 graphcolor
8 /Roboto set_font
969.5 1897 moveto 31 (          ) alignedtext
grestore
% cluster_django_contrib_admin
gsave
1 setlinewidth
0.21961 0.75294 0.5451 graphcolor
newpath 20 892.5 moveto
20 892.5 294 892.5 294 892.5 curveto
300 892.5 306 898.5 306 904.5 curveto
306 904.5 306 1058.5 306 1058.5 curveto
306 1064.5 300 1070.5 294 1070.5 curveto
294 1070.5 20 1070.5 20 1070.5 curveto
14 1070.5 8 1064.5 8 1058.5 curveto
8 1058.5 8 904.5 8 904.5 curveto
8 898.5 14 892.5 20 892.5 curveto
stroke
0 0 0 graphcolor
8 /Roboto set_font
36.5 1055 moveto 31 (          ) alignedtext
0 0 0 graphcolor
10 /Roboto set_font
67.5 1055 moveto 31 (          ) alignedtext
0 0 0 graphcolor
10 /Roboto set_font
98.5 1055 moveto 117 (django.contrib.admin) alignedtext
0 0 0 graphcolor
10 /Roboto set_font
215.5 1055 moveto 31 (          ) alignedtext
0 0 0 graphcolor
8 /Roboto set_font
246.5 1055 moveto 31 (          ) alignedtext
grestore
% django_contrib_auth_models_AbstractUser
gsave
0 0 1 nodecolor
newpath 645.5 370 moveto
645.5 532 lineto
894.5 532 lineto
894.5 370 lineto
closepath fill
0.43503 0.68605 0.33725 nodecolor
newpath 647 501 moveto
647 531 lineto
894 531 lineto
894 501 lineto
closepath fill
0 0 0 nodecolor
8 /Roboto set_font
713.5 519 moveto 19 (      ) alignedtext
0 0 1 nodecolor
10 /Roboto set_font
732.5 519 moveto 95 (      AbstractUser) alignedtext
0 0 1 nodecolor
10 /Roboto set_font
652 509 moveto 9 (<) alignedtext
0 0 1 nodecolor
10 /Roboto set_font
661 509 moveto 197 (AbstractBaseUser,PermissionsMixin) alignedtext
0 0 1 nodecolor
10 /Roboto set_font
858 509 moveto 31 (>      ) alignedtext
0 0 0 nodecolor
8 /Roboto set_font
649 493.6 moveto 19 (      ) alignedtext
0 0 0 nodecolor
8 /Roboto set_font
668 493.6 moveto 49 (date_joined) alignedtext
0 0 0 nodecolor
8 /Roboto set_font
717 493.6 moveto 19 (      ) alignedtext
0 0 0 nodecolor
8 /Roboto set_font
770 493.6 moveto 19 (      ) alignedtext
0 0 0 nodecolor
8 /Roboto set_font
789 493.6 moveto 60 (DateTimeField) alignedtext
0 0 0 nodecolor
8 /Roboto set_font
849 493.6 moveto 19 (      ) alignedtext
0 0 0 nodecolor
8 /Roboto set_font
649 480.6 moveto 19 (      ) alignedtext
0 0 0.48235 nodecolor
8 /Roboto set_font
668 480.6 moveto 24 (email) alignedtext
0 0 0 nodecolor
8 /Roboto set_font
692 480.6 moveto 19 (      ) alignedtext
0 0 0 nodecolor
8 /Roboto set_font
770 480.6 moveto 19 (      ) alignedtext
0 0 0.48235 nodecolor
8 /Roboto set_font
789 480.6 moveto 43 (EmailField) alignedtext
0 0 0 nodecolor
8 /Roboto set_font
832 480.6 moveto 19 (      ) alignedtext
0 0 0 nodecolor
8 /Roboto set_font
649 467.6 moveto 19 (      ) alignedtext
0 0 0.48235 nodecolor
8 /Roboto set_font
668 467.6 moveto 46 (first_name) alignedtext
0 0 0 nodecolor
8 /Roboto set_font
714 467.6 moveto 19 (      ) alignedtext
0 0 0 nodecolor
8 /Roboto set_font
770 467.6 moveto 19 (      ) alignedtext
0 0 0.48235 nodecolor
8 /Roboto set_font
789 467.6 moveto 40 (CharField) alignedtext
0 0 0 nodecolor
8 /Roboto set_font
829 467.6 moveto 19 (      ) alignedtext
0 0 0 nodecolor
8 /Roboto set_font
649 454.6 moveto 19 (      ) alignedtext
0 0 0 nodecolor
8 /Roboto set_font
668 454.6 moveto 37 (is_active) alignedtext
0 0 0 nodecolor
8 /Roboto set_font
705 454.6 moveto 19 (      ) alignedtext
0 0 0 nodecolor
8 /Roboto set_font
770 454.6 moveto 19 (      ) alignedtext
0 0 0 nodecolor
8 /Roboto set_font
789 454.6 moveto 54 (BooleanField) alignedtext
0 0 0 nodecolor
8 /Roboto set_font
843 454.6 moveto 19 (      ) alignedtext
0 0 0 nodecolor
8 /Roboto set_font
649 441.6 moveto 19 (      ) alignedtext
0 0 0 nodecolor
8 /Roboto set_font
668 441.6 moveto 31 (is_staff) alignedtext
0 0 0 nodecolor
8 /Roboto set_font
699 441.6 moveto 19 (      ) alignedtext
0 0 0 nodecolor
8 /Roboto set_font
770 441.6 moveto 19 (      ) alignedtext
0 0 0 nodecolor
8 /Roboto set_font
789 441.6 moveto 54 (BooleanField) alignedtext
0 0 0 nodecolor
8 /Roboto set_font
843 441.6 moveto 19 (      ) alignedtext
0 0 0 nodecolor
8 /Roboto set_font
649 428.6 moveto 19 (      ) alignedtext
0 0 0 nodecolor
8 /Roboto set_font
668 428.6 moveto 55 (is_superuser) alignedtext
0 0 0 nodecolor
8 /Roboto set_font
723 428.6 moveto 19 (      ) alignedtext
0 0 0 nodecolor
8 /Roboto set_font
770 428.6 moveto 19 (      ) alignedtext
0 0 0 nodecolor
8 /Roboto set_font
789 428.6 moveto 54 (BooleanField) alignedtext
0 0 0 nodecolor
8 /Roboto set_font
843 428.6 moveto 19 (      ) alignedtext
0 0 0 nodecolor
8 /Roboto set_font
649 415.6 moveto 19 (      ) alignedtext
0 0 0.48235 nodecolor
8 /Roboto set_font
668 415.6 moveto 40 (last_login) alignedtext
0 0 0 nodecolor
8 /Roboto set_font
708 415.6 moveto 19 (      ) alignedtext
0 0 0 nodecolor
8 /Roboto set_font
770 415.6 moveto 19 (      ) alignedtext
0 0 0.48235 nodecolor
8 /Roboto set_font
789 415.6 moveto 60 (DateTimeField) alignedtext
0 0 0 nodecolor
8 /Roboto set_font
849 415.6 moveto 19 (      ) alignedtext
0 0 0 nodecolor
8 /Roboto set_font
649 402.6 moveto 19 (      ) alignedtext
0 0 0.48235 nodecolor
8 /Roboto set_font
668 402.6 moveto 44 (last_name) alignedtext
0 0 0 nodecolor
8 /Roboto set_font
712 402.6 moveto 19 (      ) alignedtext
0 0 0 nodecolor
8 /Roboto set_font
770 402.6 moveto 19 (      ) alignedtext
0 0 0.48235 nodecolor
8 /Roboto set_font
789 402.6 moveto 40 (CharField) alignedtext
0 0 0 nodecolor
8 /Roboto set_font
829 402.6 moveto 19 (      ) alignedtext
0 0 0 nodecolor
8 /Roboto set_font
649 389.6 moveto 19 (      ) alignedtext
0 0 0 nodecolor
8 /Roboto set_font
668 389.6 moveto 41 (password) alignedtext
0 0 0 nodecolor
8 /Roboto set_font
709 389.6 moveto 19 (      ) alignedtext
0 0 0 nodecolor
8 /Roboto set_font
770 389.6 moveto 19 (      ) alignedtext
0 0 0 nodecolor
8 /Roboto set_font
789 389.6 moveto 40 (CharField) alignedtext
0 0 0 nodecolor
8 /Roboto set_font
829 389.6 moveto 19 (      ) alignedtext
0 0 0 nodecolor
8 /Roboto set_font
649 376.6 moveto 19 (      ) alignedtext
0 0 0 nodecolor
8 /Roboto set_font
668 376.6 moveto 43 (username) alignedtext
0 0 0 nodecolor
8 /Roboto set_font
711 376.6 moveto 19 (      ) alignedtext
0 0 0 nodecolor
8 /Roboto set_font
770 376.6 moveto 19 (      ) alignedtext
0 0 0 nodecolor
8 /Roboto set_font
789 376.6 moveto 40 (CharField) alignedtext
0 0 0 nodecolor
8 /Roboto set_font
829 376.6 moveto 19 (      ) alignedtext
1 setlinewidth
solid
0 0 0 nodecolor
newpath 645.5 370 moveto
645.5 532 lineto
894.5 532 lineto
894.5 370 lineto
closepath stroke
grestore
% django_contrib_auth_base_user_AbstractBaseUser
gsave
0 0 1 nodecolor
newpath 325 283.5 moveto
325 304.5 lineto
455 304.5 lineto
455 283.5 lineto
closepath fill
0.43503 0.68605 0.33725 nodecolor
newpath 325 283 moveto
325 304 lineto
455 304 lineto
455 283 lineto
closepath fill
0 0 0 nodecolor
8 /Roboto set_font
329 291.4 moveto 7 (  ) alignedtext
0 0 1 nodecolor
12 /Roboto set_font
336 291.4 moveto 108 (AbstractBaseUser) alignedtext
0 0 0 nodecolor
8 /Roboto set_font
444 291.4 moveto 7 (  ) alignedtext
grestore
% django_contrib_auth_models_AbstractUser->django_contrib_auth_base_user_AbstractBaseUser
gsave
1 setlinewidth
0 0 0 edgecolor
newpath 637.3612 396.1992 moveto
570.5806 368.6083 493.3675 336.7071 443.2145 315.986 curveto
stroke
1 setlinewidth
solid
0 0 0 edgecolor
newpath 444.4435 312.7069 moveto
433.8648 312.1231 lineto
441.7705 319.1764 lineto
closepath stroke
0 0 0 edgecolor
8 /Roboto set_font
517 341.6 moveto 38 ( abstract) alignedtext
0 0 0 edgecolor
8 /Roboto set_font
512 332.6 moveto 48 (inheritance) alignedtext
grestore
% django_contrib_auth_models_PermissionsMixin
gsave
0 0 1 nodecolor
newpath 489 283.5 moveto
489 304.5 lineto
613 304.5 lineto
613 283.5 lineto
closepath fill
0.43503 0.68605 0.33725 nodecolor
newpath 489 283 moveto
489 304 lineto
613 304 lineto
613 283 lineto
closepath fill
0 0 0 nodecolor
8 /Roboto set_font
493 291.4 moveto 7 (  ) alignedtext
0 0 1 nodecolor
12 /Roboto set_font
500 291.4 moveto 102 (PermissionsMixin) alignedtext
0 0 0 nodecolor
8 /Roboto set_font
602 291.4 moveto 7 (  ) alignedtext
grestore
% django_contrib_auth_models_AbstractUser->django_contrib_auth_models_PermissionsMixin
gsave
1 setlinewidth
0 0 0 edgecolor
newpath 651.2067 365.8377 moveto
626.8383 348.3681 603.0881 331.3417 584.8305 318.2529 curveto
stroke
1 setlinewidth
solid
0 0 0 edgecolor
newpath 586.4967 315.141 moveto
576.3302 312.1591 lineto
582.4182 320.8301 lineto
closepath stroke
0 0 0 edgecolor
8 /Roboto set_font
626 341.6 moveto 38 ( abstract) alignedtext
0 0 0 edgecolor
8 /Roboto set_font
621 332.6 moveto 48 (inheritance) alignedtext
grestore
% django_contrib_auth_models_Permission
gsave
0 0 1 nodecolor
newpath 829 160 moveto
829 235 lineto
1049 235 lineto
1049 160 lineto
closepath fill
0.43503 0.68605 0.33725 nodecolor
newpath 830 212.5 moveto
830 233.5 lineto
1048 233.5 lineto
1048 212.5 lineto
closepath fill
0 0 0 nodecolor
8 /Roboto set_font
876.5 221.5 moveto 19 (      ) alignedtext
0 0 1 nodecolor
10 /Roboto set_font
895.5 221.5 moveto 106 (      Permission      ) alignedtext
0 0 0 nodecolor
8 /Roboto set_font
832 205.1 moveto 19 (      ) alignedtext
0 0 0 nodecolor
8 /Roboto set_font
851 205.1 moveto 10 (id) alignedtext
0 0 0 nodecolor
8 /Roboto set_font
861 205.1 moveto 19 (      ) alignedtext
0 0 0 nodecolor
8 /Roboto set_font
935 205.1 moveto 19 (      ) alignedtext
0 0 0 nodecolor
8 /Roboto set_font
954 205.1 moveto 46 (AutoField) alignedtext
0 0 0 nodecolor
8 /Roboto set_font
1000 205.1 moveto 19 (      ) alignedtext
0 0 0 nodecolor
8 /Roboto set_font
832 192.1 moveto 19 (      ) alignedtext
0 0 0 nodecolor
8 /Roboto set_font
851 192.1 moveto 61 (content_type) alignedtext
0 0 0 nodecolor
8 /Roboto set_font
912 192.1 moveto 19 (      ) alignedtext
0 0 0 nodecolor
8 /Roboto set_font
935 192.1 moveto 19 (      ) alignedtext
0 0 0 nodecolor
8 /Roboto set_font
954 192.1 moveto 73 (ForeignKey \(id\)) alignedtext
0 0 0 nodecolor
8 /Roboto set_font
1027 192.1 moveto 19 (      ) alignedtext
0 0 0 nodecolor
8 /Roboto set_font
832 179.1 moveto 19 (      ) alignedtext
0 0 0 nodecolor
8 /Roboto set_font
851 179.1 moveto 45 (codename) alignedtext
0 0 0 nodecolor
8 /Roboto set_font
896 179.1 moveto 19 (      ) alignedtext
0 0 0 nodecolor
8 /Roboto set_font
935 179.1 moveto 19 (      ) alignedtext
0 0 0 nodecolor
8 /Roboto set_font
954 179.1 moveto 40 (CharField) alignedtext
0 0 0 nodecolor
8 /Roboto set_font
994 179.1 moveto 19 (      ) alignedtext
0 0 0 nodecolor
8 /Roboto set_font
832 166.1 moveto 19 (      ) alignedtext
0 0 0 nodecolor
8 /Roboto set_font
851 166.1 moveto 25 (name) alignedtext
0 0 0 nodecolor
8 /Roboto set_font
876 166.1 moveto 19 (      ) alignedtext
0 0 0 nodecolor
8 /Roboto set_font
935 166.1 moveto 19 (      ) alignedtext
0 0 0 nodecolor
8 /Roboto set_font
954 166.1 moveto 40 (CharField) alignedtext
0 0 0 nodecolor
8 /Roboto set_font
994 166.1 moveto 19 (      ) alignedtext
1 setlinewidth
solid
0 0 0 nodecolor
newpath 829 160 moveto
829 235 lineto
1049 235 lineto
1049 160 lineto
closepath stroke
grestore
% django_contrib_contenttypes_models_ContentType
gsave
0 0 1 nodecolor
newpath 338.5 20 moveto
338.5 82 lineto
511.5 82 lineto
511.5 20 lineto
closepath fill
0.43503 0.68605 0.33725 nodecolor
newpath 340 60 moveto
340 81 lineto
511 81 lineto
511 60 lineto
closepath fill
0 0 0 nodecolor
8 /Roboto set_font
359 69 moveto 19 (      ) alignedtext
0 0 1 nodecolor
10 /Roboto set_font
378 69 moveto 114 (      ContentType      ) alignedtext
0 0 0 nodecolor
8 /Roboto set_font
342 52.6 moveto 19 (      ) alignedtext
0 0 0 nodecolor
8 /Roboto set_font
361 52.6 moveto 10 (id) alignedtext
0 0 0 nodecolor
8 /Roboto set_font
371 52.6 moveto 19 (      ) alignedtext
0 0 0 nodecolor
8 /Roboto set_font
425 52.6 moveto 19 (      ) alignedtext
0 0 0 nodecolor
8 /Roboto set_font
444 52.6 moveto 46 (AutoField) alignedtext
0 0 0 nodecolor
8 /Roboto set_font
490 52.6 moveto 19 (      ) alignedtext
0 0 0 nodecolor
8 /Roboto set_font
342 39.6 moveto 19 (      ) alignedtext
0 0 0 nodecolor
8 /Roboto set_font
361 39.6 moveto 41 (app_label) alignedtext
0 0 0 nodecolor
8 /Roboto set_font
402 39.6 moveto 19 (      ) alignedtext
0 0 0 nodecolor
8 /Roboto set_font
425 39.6 moveto 19 (      ) alignedtext
0 0 0 nodecolor
8 /Roboto set_font
444 39.6 moveto 40 (CharField) alignedtext
0 0 0 nodecolor
8 /Roboto set_font
484 39.6 moveto 19 (      ) alignedtext
0 0 0 nodecolor
8 /Roboto set_font
342 26.6 moveto 19 (      ) alignedtext
0 0 0 nodecolor
8 /Roboto set_font
361 26.6 moveto 27 (model) alignedtext
0 0 0 nodecolor
8 /Roboto set_font
388 26.6 moveto 19 (      ) alignedtext
0 0 0 nodecolor
8 /Roboto set_font
425 26.6 moveto 19 (      ) alignedtext
0 0 0 nodecolor
8 /Roboto set_font
444 26.6 moveto 40 (CharField) alignedtext
0 0 0 nodecolor
8 /Roboto set_font
484 26.6 moveto 19 (      ) alignedtext
1 setlinewidth
solid
0 0 0 nodecolor
newpath 338.5 20 moveto
338.5 82 lineto
511.5 82 lineto
511.5 20 lineto
closepath stroke
grestore
% django_contrib_auth_models_Permission->django_contrib_contenttypes_models_ContentType
gsave
1 setlinewidth
0 0 0 edgecolor
newpath 812.9069 161.561 moveto
722.2621 135.7255 601.9766 101.4418 519.5202 77.9401 curveto
stroke
0 0 0 edgecolor
816.9087 162.7016 4 4 ellipse_path fill
1 setlinewidth
solid
0 0 0 edgecolor
816.9087 162.7016 4 4 ellipse_path stroke
0 0 0 edgecolor
8 /Roboto set_font
728 131.6 moveto 114 ( content_type \(permission\)) alignedtext
grestore
% django_contrib_auth_models_Group
gsave
0 0 1 nodecolor
newpath 1071.5 426.5 moveto
1071.5 475.5 lineto
1228.5 475.5 lineto
1228.5 426.5 lineto
closepath fill
0.43503 0.68605 0.33725 nodecolor
newpath 1073 453 moveto
1073 474 lineto
1228 474 lineto
1228 453 lineto
closepath fill
0 0 0 nodecolor
8 /Roboto set_font
1101.5 462 moveto 19 (      ) alignedtext
0 0 1 nodecolor
10 /Roboto set_font
1120.5 462 moveto 79 (      Group      ) alignedtext
0 0 0 nodecolor
8 /Roboto set_font
1075 445.6 moveto 19 (      ) alignedtext
0 0 0 nodecolor
8 /Roboto set_font
1094 445.6 moveto 10 (id) alignedtext
0 0 0 nodecolor
8 /Roboto set_font
1104 445.6 moveto 19 (      ) alignedtext
0 0 0 nodecolor
8 /Roboto set_font
1142 445.6 moveto 19 (      ) alignedtext
0 0 0 nodecolor
8 /Roboto set_font
1161 445.6 moveto 46 (AutoField) alignedtext
0 0 0 nodecolor
8 /Roboto set_font
1207 445.6 moveto 19 (      ) alignedtext
0 0 0 nodecolor
8 /Roboto set_font
1075 432.6 moveto 19 (      ) alignedtext
0 0 0 nodecolor
8 /Roboto set_font
1094 432.6 moveto 25 (name) alignedtext
0 0 0 nodecolor
8 /Roboto set_font
1119 432.6 moveto 19 (      ) alignedtext
0 0 0 nodecolor
8 /Roboto set_font
1142 432.6 moveto 19 (      ) alignedtext
0 0 0 nodecolor
8 /Roboto set_font
1161 432.6 moveto 40 (CharField) alignedtext
0 0 0 nodecolor
8 /Roboto set_font
1201 432.6 moveto 19 (      ) alignedtext
1 setlinewidth
solid
0 0 0 nodecolor
newpath 1071.5 426.5 moveto
1071.5 475.5 lineto
1228.5 475.5 lineto
1228.5 426.5 lineto
closepath stroke
grestore
% django_contrib_auth_models_Group->django_contrib_auth_models_Permission
gsave
1 setlinewidth
0 0 0 edgecolor
newpath 1120.9893 416.146 moveto
1084.1803 371.9227 1020.5109 295.429 979.0796 245.6526 curveto
stroke
0 0 0 edgecolor
1123.6468 419.3387 4 4 ellipse_path fill
1 setlinewidth
solid
0 0 0 edgecolor
1123.6468 419.3387 4 4 ellipse_path stroke
0 0 0 edgecolor
976.4485 242.4914 4 4 ellipse_path fill
1 setlinewidth
solid
0 0 0 edgecolor
976.4485 242.4914 4 4 ellipse_path stroke
0 0 0 edgecolor
8 /Roboto set_font
1033 292.1 moveto 88 ( permissions \(group\)) alignedtext
grestore
% django_contrib_auth_models_User
gsave
0 0 1 nodecolor
newpath 873.5 632 moveto
873.5 807 lineto
1074.5 807 lineto
1074.5 632 lineto
closepath fill
0.43503 0.68605 0.33725 nodecolor
newpath 875 775.5 moveto
875 805.5 lineto
1074 805.5 lineto
1074 775.5 lineto
closepath fill
0 0 0 nodecolor
8 /Roboto set_font
940.5 793.5 moveto 19 (      ) alignedtext
0 0 1 nodecolor
10 /Roboto set_font
959.5 793.5 moveto 49 (      User) alignedtext
0 0 1 nodecolor
10 /Roboto set_font
918 783.5 moveto 9 (<) alignedtext
0 0 1 nodecolor
10 /Roboto set_font
927 783.5 moveto 73 (AbstractUser) alignedtext
0 0 1 nodecolor
10 /Roboto set_font
1000 783.5 moveto 31 (>      ) alignedtext
0 0 0 nodecolor
8 /Roboto set_font
877 768.1 moveto 19 (      ) alignedtext
0 0 0 nodecolor
8 /Roboto set_font
896 768.1 moveto 10 (id) alignedtext
0 0 0 nodecolor
8 /Roboto set_font
906 768.1 moveto 19 (      ) alignedtext
0 0 0 nodecolor
8 /Roboto set_font
974 768.1 moveto 19 (      ) alignedtext
0 0 0 nodecolor
8 /Roboto set_font
993 768.1 moveto 46 (AutoField) alignedtext
0 0 0 nodecolor
8 /Roboto set_font
1039 768.1 moveto 19 (      ) alignedtext
0 0 0 nodecolor
8 /Roboto set_font
877 755.1 moveto 19 (      ) alignedtext
0 0 0 nodecolor
8 /Roboto set_font
896 755.1 moveto 49 (date_joined) alignedtext
0 0 0 nodecolor
8 /Roboto set_font
945 755.1 moveto 19 (      ) alignedtext
0 0 0 nodecolor
8 /Roboto set_font
974 755.1 moveto 19 (      ) alignedtext
0 0 0 nodecolor
8 /Roboto set_font
993 755.1 moveto 60 (DateTimeField) alignedtext
0 0 0 nodecolor
8 /Roboto set_font
1053 755.1 moveto 19 (      ) alignedtext
0 0 0 nodecolor
8 /Roboto set_font
877 742.1 moveto 19 (      ) alignedtext
0 0 0.48235 nodecolor
8 /Roboto set_font
896 742.1 moveto 24 (email) alignedtext
0 0 0 nodecolor
8 /Roboto set_font
920 742.1 moveto 19 (      ) alignedtext
0 0 0 nodecolor
8 /Roboto set_font
974 742.1 moveto 19 (      ) alignedtext
0 0 0.48235 nodecolor
8 /Roboto set_font
993 742.1 moveto 43 (EmailField) alignedtext
0 0 0 nodecolor
8 /Roboto set_font
1036 742.1 moveto 19 (      ) alignedtext
0 0 0 nodecolor
8 /Roboto set_font
877 729.1 moveto 19 (      ) alignedtext
0 0 0.48235 nodecolor
8 /Roboto set_font
896 729.1 moveto 46 (first_name) alignedtext
0 0 0 nodecolor
8 /Roboto set_font
942 729.1 moveto 19 (      ) alignedtext
0 0 0 nodecolor
8 /Roboto set_font
974 729.1 moveto 19 (      ) alignedtext
0 0 0.48235 nodecolor
8 /Roboto set_font
993 729.1 moveto 40 (CharField) alignedtext
0 0 0 nodecolor
8 /Roboto set_font
1033 729.1 moveto 19 (      ) alignedtext
0 0 0 nodecolor
8 /Roboto set_font
877 716.1 moveto 19 (      ) alignedtext
0 0 0 nodecolor
8 /Roboto set_font
896 716.1 moveto 37 (is_active) alignedtext
0 0 0 nodecolor
8 /Roboto set_font
933 716.1 moveto 19 (      ) alignedtext
0 0 0 nodecolor
8 /Roboto set_font
974 716.1 moveto 19 (      ) alignedtext
0 0 0 nodecolor
8 /Roboto set_font
993 716.1 moveto 54 (BooleanField) alignedtext
0 0 0 nodecolor
8 /Roboto set_font
1047 716.1 moveto 19 (      ) alignedtext
0 0 0 nodecolor
8 /Roboto set_font
877 703.1 moveto 19 (      ) alignedtext
0 0 0 nodecolor
8 /Roboto set_font
896 703.1 moveto 31 (is_staff) alignedtext
0 0 0 nodecolor
8 /Roboto set_font
927 703.1 moveto 19 (      ) alignedtext
0 0 0 nodecolor
8 /Roboto set_font
974 703.1 moveto 19 (      ) alignedtext
0 0 0 nodecolor
8 /Roboto set_font
993 703.1 moveto 54 (BooleanField) alignedtext
0 0 0 nodecolor
8 /Roboto set_font
1047 703.1 moveto 19 (      ) alignedtext
0 0 0 nodecolor
8 /Roboto set_font
877 690.1 moveto 19 (      ) alignedtext
0 0 0 nodecolor
8 /Roboto set_font
896 690.1 moveto 55 (is_superuser) alignedtext
0 0 0 nodecolor
8 /Roboto set_font
951 690.1 moveto 19 (      ) alignedtext
0 0 0 nodecolor
8 /Roboto set_font
974 690.1 moveto 19 (      ) alignedtext
0 0 0 nodecolor
8 /Roboto set_font
993 690.1 moveto 54 (BooleanField) alignedtext
0 0 0 nodecolor
8 /Roboto set_font
1047 690.1 moveto 19 (      ) alignedtext
0 0 0 nodecolor
8 /Roboto set_font
877 677.1 moveto 19 (      ) alignedtext
0 0 0.48235 nodecolor
8 /Roboto set_font
896 677.1 moveto 40 (last_login) alignedtext
0 0 0 nodecolor
8 /Roboto set_font
936 677.1 moveto 19 (      ) alignedtext
0 0 0 nodecolor
8 /Roboto set_font
974 677.1 moveto 19 (      ) alignedtext
0 0 0.48235 nodecolor
8 /Roboto set_font
993 677.1 moveto 60 (DateTimeField) alignedtext
0 0 0 nodecolor
8 /Roboto set_font
1053 677.1 moveto 19 (      ) alignedtext
0 0 0 nodecolor
8 /Roboto set_font
877 664.1 moveto 19 (      ) alignedtext
0 0 0.48235 nodecolor
8 /Roboto set_font
896 664.1 moveto 44 (last_name) alignedtext
0 0 0 nodecolor
8 /Roboto set_font
940 664.1 moveto 19 (      ) alignedtext
0 0 0 nodecolor
8 /Roboto set_font
974 664.1 moveto 19 (      ) alignedtext
0 0 0.48235 nodecolor
8 /Roboto set_font
993 664.1 moveto 40 (CharField) alignedtext
0 0 0 nodecolor
8 /Roboto set_font
1033 664.1 moveto 19 (      ) alignedtext
0 0 0 nodecolor
8 /Roboto set_font
877 651.1 moveto 19 (      ) alignedtext
0 0 0 nodecolor
8 /Roboto set_font
896 651.1 moveto 41 (password) alignedtext
0 0 0 nodecolor
8 /Roboto set_font
937 651.1 moveto 19 (      ) alignedtext
0 0 0 nodecolor
8 /Roboto set_font
974 651.1 moveto 19 (      ) alignedtext
0 0 0 nodecolor
8 /Roboto set_font
993 651.1 moveto 40 (CharField) alignedtext
0 0 0 nodecolor
8 /Roboto set_font
1033 651.1 moveto 19 (      ) alignedtext
0 0 0 nodecolor
8 /Roboto set_font
877 638.1 moveto 19 (      ) alignedtext
0 0 0 nodecolor
8 /Roboto set_font
896 638.1 moveto 43 (username) alignedtext
0 0 0 nodecolor
8 /Roboto set_font
939 638.1 moveto 19 (      ) alignedtext
0 0 0 nodecolor
8 /Roboto set_font
974 638.1 moveto 19 (      ) alignedtext
0 0 0 nodecolor
8 /Roboto set_font
993 638.1 moveto 40 (CharField) alignedtext
0 0 0 nodecolor
8 /Roboto set_font
1033 638.1 moveto 19 (      ) alignedtext
1 setlinewidth
solid
0 0 0 nodecolor
newpath 873.5 632 moveto
873.5 807 lineto
1074.5 807 lineto
1074.5 632 lineto
closepath stroke
grestore
% django_contrib_auth_models_User->django_contrib_auth_models_AbstractUser
gsave
1 setlinewidth
0 0 0 edgecolor
newpath 904.3653 627.8485 moveto
883.9677 601.0016 861.6436 571.6192 841.1529 544.6498 curveto
stroke
1 setlinewidth
solid
0 0 0 edgecolor
newpath 843.6934 542.208 moveto
834.8568 536.3629 lineto
838.1196 546.4428 lineto
closepath stroke
0 0 0 edgecolor
8 /Roboto set_font
880 584.6 moveto 38 ( abstract) alignedtext
0 0 0 edgecolor
8 /Roboto set_font
875 575.6 moveto 48 (inheritance) alignedtext
grestore
% django_contrib_auth_models_User->django_contrib_auth_models_Permission
gsave
1 setlinewidth
0 0 0 edgecolor
newpath 942.4889 619.6415 moveto
940.3372 607.0868 939 594.326 939 582 curveto
939 582 939 582 939 294 curveto
939 278.8748 939 262.416 939 247.4454 curveto
stroke
0 0 0 edgecolor
943.2841 623.9226 4 4 ellipse_path fill
1 setlinewidth
solid
0 0 0 edgecolor
943.2841 623.9226 4 4 ellipse_path stroke
0 0 0 edgecolor
939 243.2994 4 4 ellipse_path fill
1 setlinewidth
solid
0 0 0 edgecolor
939 243.2994 4 4 ellipse_path stroke
0 0 0 edgecolor
8 /Roboto set_font
939 449.1 moveto 106 ( user_permissions \(user\)) alignedtext
grestore
% django_contrib_auth_models_User->django_contrib_auth_models_Group
gsave
1 setlinewidth
0 0 0 edgecolor
newpath 1038.4867 621.1211 moveto
1069.2636 574.1689 1104.1814 520.8995 1126.6166 486.673 curveto
stroke
0 0 0 edgecolor
1036.2698 624.5031 4 4 ellipse_path fill
1 setlinewidth
solid
0 0 0 edgecolor
1036.2698 624.5031 4 4 ellipse_path stroke
0 0 0 edgecolor
1129.0157 483.0129 4 4 ellipse_path fill
1 setlinewidth
solid
0 0 0 edgecolor
1129.0157 483.0129 4 4 ellipse_path stroke
0 0 0 edgecolor
8 /Roboto set_font
1069 580.1 moveto 61 ( groups \(user\)) alignedtext
grestore
% django_contrib_sessions_base_session_AbstractBaseSession
gsave
0 0 1 nodecolor
newpath 1639.5 1448 moveto
1639.5 1497 lineto
1840.5 1497 lineto
1840.5 1448 lineto
closepath fill
0.43503 0.68605 0.33725 nodecolor
newpath 1641 1474.5 moveto
1641 1495.5 lineto
1840 1495.5 lineto
1840 1474.5 lineto
closepath fill
0 0 0 nodecolor
8 /Roboto set_font
1650.5 1483.5 moveto 19 (      ) alignedtext
0 0 1 nodecolor
10 /Roboto set_font
1669.5 1483.5 moveto 161 (      AbstractBaseSession      ) alignedtext
0 0 0 nodecolor
8 /Roboto set_font
1643 1467.1 moveto 19 (      ) alignedtext
0 0 0 nodecolor
8 /Roboto set_font
1662 1467.1 moveto 51 (expire_date) alignedtext
0 0 0 nodecolor
8 /Roboto set_font
1713 1467.1 moveto 19 (      ) alignedtext
0 0 0 nodecolor
8 /Roboto set_font
1740 1467.1 moveto 19 (      ) alignedtext
0 0 0 nodecolor
8 /Roboto set_font
1759 1467.1 moveto 60 (DateTimeField) alignedtext
0 0 0 nodecolor
8 /Roboto set_font
1819 1467.1 moveto 19 (      ) alignedtext
0 0 0 nodecolor
8 /Roboto set_font
1643 1454.1 moveto 19 (      ) alignedtext
0 0 0 nodecolor
8 /Roboto set_font
1662 1454.1 moveto 55 (session_data) alignedtext
0 0 0 nodecolor
8 /Roboto set_font
1717 1454.1 moveto 19 (      ) alignedtext
0 0 0 nodecolor
8 /Roboto set_font
1740 1454.1 moveto 19 (      ) alignedtext
0 0 0 nodecolor
8 /Roboto set_font
1759 1454.1 moveto 37 (TextField) alignedtext
0 0 0 nodecolor
8 /Roboto set_font
1796 1454.1 moveto 19 (      ) alignedtext
1 setlinewidth
solid
0 0 0 nodecolor
newpath 1639.5 1448 moveto
1639.5 1497 lineto
1840.5 1497 lineto
1840.5 1448 lineto
closepath stroke
grestore
% django_contrib_sessions_models_Session
gsave
0 0 1 nodecolor
newpath 1638.5 1722.5 moveto
1638.5 1793.5 lineto
1841.5 1793.5 lineto
1841.5 1722.5 lineto
closepath fill
0.43503 0.68605 0.33725 nodecolor
newpath 1640 1762 moveto
1640 1792 lineto
1841 1792 lineto
1841 1762 lineto
closepath fill
0 0 0 nodecolor
8 /Roboto set_font
1698.5 1780 moveto 19 (      ) alignedtext
0 0 1 nodecolor
10 /Roboto set_font
1717.5 1780 moveto 65 (      Session) alignedtext
0 0 1 nodecolor
10 /Roboto set_font
1662.5 1770 moveto 9 (<) alignedtext
0 0 1 nodecolor
10 /Roboto set_font
1671.5 1770 moveto 116 (AbstractBaseSession) alignedtext
0 0 1 nodecolor
10 /Roboto set_font
1787.5 1770 moveto 31 (>      ) alignedtext
0 0 0 nodecolor
8 /Roboto set_font
1642 1754.6 moveto 19 (      ) alignedtext
0 0 0 nodecolor
8 /Roboto set_font
1661 1754.6 moveto 57 (session_key) alignedtext
0 0 0 nodecolor
8 /Roboto set_font
1718 1754.6 moveto 19 (      ) alignedtext
0 0 0 nodecolor
8 /Roboto set_font
1741 1754.6 moveto 19 (      ) alignedtext
0 0 0 nodecolor
8 /Roboto set_font
1760 1754.6 moveto 45 (CharField) alignedtext
0 0 0 nodecolor
8 /Roboto set_font
1805 1754.6 moveto 19 (      ) alignedtext
0 0 0 nodecolor
8 /Roboto set_font
1642 1741.6 moveto 19 (      ) alignedtext
0 0 0 nodecolor
8 /Roboto set_font
1661 1741.6 moveto 51 (expire_date) alignedtext
0 0 0 nodecolor
8 /Roboto set_font
1712 1741.6 moveto 19 (      ) alignedtext
0 0 0 nodecolor
8 /Roboto set_font
1741 1741.6 moveto 19 (      ) alignedtext
0 0 0 nodecolor
8 /Roboto set_font
1760 1741.6 moveto 60 (DateTimeField) alignedtext
0 0 0 nodecolor
8 /Roboto set_font
1820 1741.6 moveto 19 (      ) alignedtext
0 0 0 nodecolor
8 /Roboto set_font
1642 1728.6 moveto 19 (      ) alignedtext
0 0 0 nodecolor
8 /Roboto set_font
1661 1728.6 moveto 55 (session_data) alignedtext
0 0 0 nodecolor
8 /Roboto set_font
1716 1728.6 moveto 19 (      ) alignedtext
0 0 0 nodecolor
8 /Roboto set_font
1741 1728.6 moveto 19 (      ) alignedtext
0 0 0 nodecolor
8 /Roboto set_font
1760 1728.6 moveto 37 (TextField) alignedtext
0 0 0 nodecolor
8 /Roboto set_font
1797 1728.6 moveto 19 (      ) alignedtext
1 setlinewidth
solid
0 0 0 nodecolor
newpath 1638.5 1722.5 moveto
1638.5 1793.5 lineto
1841.5 1793.5 lineto
1841.5 1722.5 lineto
closepath stroke
grestore
% django_contrib_sessions_models_Session->django_contrib_sessions_base_session_AbstractBaseSession
gsave
1 setlinewidth
0 0 0 edgecolor
newpath 1740 1718.3024 moveto
1740 1663.5749 1740 1565.5771 1740 1511.3178 curveto
stroke
1 setlinewidth
solid
0 0 0 edgecolor
newpath 1743.5001 1511.0748 moveto
1740 1501.0749 lineto
1736.5001 1511.0749 lineto
closepath stroke
0 0 0 edgecolor
8 /Roboto set_font
1745 1595.1 moveto 38 ( abstract) alignedtext
0 0 0 edgecolor
8 /Roboto set_font
1740 1586.1 moveto 48 (inheritance) alignedtext
grestore
% openlink_app_models_Publication
gsave
0 0 1 nodecolor
newpath 1282.5 1415.5 moveto
1282.5 1529.5 lineto
1473.5 1529.5 lineto
1473.5 1415.5 lineto
closepath fill
0.43503 0.68605 0.33725 nodecolor
newpath 1284 1507.5 moveto
1284 1528.5 lineto
1473 1528.5 lineto
1473 1507.5 lineto
closepath fill
0 0 0 nodecolor
8 /Roboto set_font
1316 1516.5 moveto 19 (      ) alignedtext
0 0 1 nodecolor
10 /Roboto set_font
1335 1516.5 moveto 106 (      Publication      ) alignedtext
0 0 0 nodecolor
8 /Roboto set_font
1286 1500.1 moveto 19 (      ) alignedtext
0 0 0 nodecolor
8 /Roboto set_font
1305 1500.1 moveto 10 (id) alignedtext
0 0 0 nodecolor
8 /Roboto set_font
1315 1500.1 moveto 19 (      ) alignedtext
0 0 0 nodecolor
8 /Roboto set_font
1360 1500.1 moveto 19 (      ) alignedtext
0 0 0 nodecolor
8 /Roboto set_font
1379 1500.1 moveto 46 (AutoField) alignedtext
0 0 0 nodecolor
8 /Roboto set_font
1425 1500.1 moveto 19 (      ) alignedtext
0 0 0 nodecolor
8 /Roboto set_font
1286 1487.1 moveto 19 (      ) alignedtext
0 0 0 nodecolor
8 /Roboto set_font
1305 1487.1 moveto 31 (author) alignedtext
0 0 0 nodecolor
8 /Roboto set_font
1336 1487.1 moveto 19 (      ) alignedtext
0 0 0 nodecolor
8 /Roboto set_font
1360 1487.1 moveto 19 (      ) alignedtext
0 0 0 nodecolor
8 /Roboto set_font
1379 1487.1 moveto 73 (ForeignKey \(id\)) alignedtext
0 0 0 nodecolor
8 /Roboto set_font
1452 1487.1 moveto 19 (      ) alignedtext
0 0 0 nodecolor
8 /Roboto set_font
1286 1474.1 moveto 19 (      ) alignedtext
0 0 0 nodecolor
8 /Roboto set_font
1305 1474.1 moveto 13 (doi) alignedtext
0 0 0 nodecolor
8 /Roboto set_font
1318 1474.1 moveto 19 (      ) alignedtext
0 0 0 nodecolor
8 /Roboto set_font
1360 1474.1 moveto 19 (      ) alignedtext
0 0 0 nodecolor
8 /Roboto set_font
1379 1474.1 moveto 40 (CharField) alignedtext
0 0 0 nodecolor
8 /Roboto set_font
1419 1474.1 moveto 19 (      ) alignedtext
0 0 0 nodecolor
8 /Roboto set_font
1286 1461.1 moveto 19 (      ) alignedtext
0 0 0.48235 nodecolor
8 /Roboto set_font
1305 1461.1 moveto 26 (pmcid) alignedtext
0 0 0 nodecolor
8 /Roboto set_font
1331 1461.1 moveto 19 (      ) alignedtext
0 0 0 nodecolor
8 /Roboto set_font
1360 1461.1 moveto 19 (      ) alignedtext
0 0 0.48235 nodecolor
8 /Roboto set_font
1379 1461.1 moveto 40 (CharField) alignedtext
0 0 0 nodecolor
8 /Roboto set_font
1419 1461.1 moveto 19 (      ) alignedtext
0 0 0 nodecolor
8 /Roboto set_font
1286 1448.1 moveto 19 (      ) alignedtext
0 0 0.48235 nodecolor
8 /Roboto set_font
1305 1448.1 moveto 22 (pmid) alignedtext
0 0 0 nodecolor
8 /Roboto set_font
1327 1448.1 moveto 19 (      ) alignedtext
0 0 0 nodecolor
8 /Roboto set_font
1360 1448.1 moveto 19 (      ) alignedtext
0 0 0.48235 nodecolor
8 /Roboto set_font
1379 1448.1 moveto 40 (CharField) alignedtext
0 0 0 nodecolor
8 /Roboto set_font
1419 1448.1 moveto 19 (      ) alignedtext
0 0 0 nodecolor
8 /Roboto set_font
1286 1435.1 moveto 19 (      ) alignedtext
0 0 0.48235 nodecolor
8 /Roboto set_font
1305 1435.1 moveto 19 (type) alignedtext
0 0 0 nodecolor
8 /Roboto set_font
1324 1435.1 moveto 19 (      ) alignedtext
0 0 0 nodecolor
8 /Roboto set_font
1360 1435.1 moveto 19 (      ) alignedtext
0 0 0.48235 nodecolor
8 /Roboto set_font
1379 1435.1 moveto 40 (CharField) alignedtext
0 0 0 nodecolor
8 /Roboto set_font
1419 1435.1 moveto 19 (      ) alignedtext
0 0 0 nodecolor
8 /Roboto set_font
1286 1422.1 moveto 19 (      ) alignedtext
0 0 0.48235 nodecolor
8 /Roboto set_font
1305 1422.1 moveto 32 (version) alignedtext
0 0 0 nodecolor
8 /Roboto set_font
1337 1422.1 moveto 19 (      ) alignedtext
0 0 0 nodecolor
8 /Roboto set_font
1360 1422.1 moveto 19 (      ) alignedtext
0 0 0.48235 nodecolor
8 /Roboto set_font
1379 1422.1 moveto 40 (CharField) alignedtext
0 0 0 nodecolor
8 /Roboto set_font
1419 1422.1 moveto 19 (      ) alignedtext
1 setlinewidth
solid
0 0 0 nodecolor
newpath 1282.5 1415.5 moveto
1282.5 1529.5 lineto
1473.5 1529.5 lineto
1473.5 1415.5 lineto
closepath stroke
grestore
% openlink_app_models_Publication->django_contrib_auth_models_User
gsave
1 setlinewidth
0 0 0 edgecolor
newpath 1366.8215 1402.932 moveto
1365.1644 1387.8297 1364 1371.9124 1364 1357 curveto
1364 1357 1364 1357 1364 968 curveto
1364 923.4468 1362.2163 905.7408 1332 873 curveto
1266.1854 801.6867 1161.6669 762.0906 1082.5151 741.0613 curveto
stroke
0 0 0 edgecolor
1367.3253 1407.2537 4 4 ellipse_path fill
1 setlinewidth
solid
0 0 0 edgecolor
1367.3253 1407.2537 4 4 ellipse_path stroke
0 0 0 edgecolor
8 /Roboto set_font
1364 1135.1 moveto 86 ( author \(publication\)) alignedtext
grestore
% openlink_app_models_Download
gsave
0 0 1 nodecolor
newpath 563.5 1422 moveto
563.5 1523 lineto
762.5 1523 lineto
762.5 1422 lineto
closepath fill
0.43503 0.68605 0.33725 nodecolor
newpath 565 1500.5 moveto
565 1521.5 lineto
762 1521.5 lineto
762 1500.5 lineto
closepath fill
0 0 0 nodecolor
8 /Roboto set_font
604 1509.5 moveto 19 (      ) alignedtext
0 0 1 nodecolor
10 /Roboto set_font
623 1509.5 moveto 100 (      Download      ) alignedtext
0 0 0 nodecolor
8 /Roboto set_font
567 1493.1 moveto 19 (      ) alignedtext
0 0 0 nodecolor
8 /Roboto set_font
586 1493.1 moveto 10 (id) alignedtext
0 0 0 nodecolor
8 /Roboto set_font
596 1493.1 moveto 19 (      ) alignedtext
0 0 0 nodecolor
8 /Roboto set_font
649 1493.1 moveto 19 (      ) alignedtext
0 0 0 nodecolor
8 /Roboto set_font
668 1493.1 moveto 46 (AutoField) alignedtext
0 0 0 nodecolor
8 /Roboto set_font
714 1493.1 moveto 19 (      ) alignedtext
0 0 0 nodecolor
8 /Roboto set_font
567 1480.1 moveto 19 (      ) alignedtext
0 0 0 nodecolor
8 /Roboto set_font
586 1480.1 moveto 31 (author) alignedtext
0 0 0 nodecolor
8 /Roboto set_font
617 1480.1 moveto 19 (      ) alignedtext
0 0 0 nodecolor
8 /Roboto set_font
649 1480.1 moveto 19 (      ) alignedtext
0 0 0 nodecolor
8 /Roboto set_font
668 1480.1 moveto 73 (ForeignKey \(id\)) alignedtext
0 0 0 nodecolor
8 /Roboto set_font
741 1480.1 moveto 19 (      ) alignedtext
0 0 0 nodecolor
8 /Roboto set_font
567 1467.1 moveto 19 (      ) alignedtext
0 0 0.48235 nodecolor
8 /Roboto set_font
586 1467.1 moveto 40 (comment) alignedtext
0 0 0 nodecolor
8 /Roboto set_font
626 1467.1 moveto 19 (      ) alignedtext
0 0 0 nodecolor
8 /Roboto set_font
649 1467.1 moveto 19 (      ) alignedtext
0 0 0.48235 nodecolor
8 /Roboto set_font
668 1467.1 moveto 40 (CharField) alignedtext
0 0 0 nodecolor
8 /Roboto set_font
708 1467.1 moveto 19 (      ) alignedtext
0 0 0 nodecolor
8 /Roboto set_font
567 1454.1 moveto 19 (      ) alignedtext
0 0 0 nodecolor
8 /Roboto set_font
586 1454.1 moveto 15 (link) alignedtext
0 0 0 nodecolor
8 /Roboto set_font
601 1454.1 moveto 19 (      ) alignedtext
0 0 0 nodecolor
8 /Roboto set_font
649 1454.1 moveto 19 (      ) alignedtext
0 0 0 nodecolor
8 /Roboto set_font
668 1454.1 moveto 40 (CharField) alignedtext
0 0 0 nodecolor
8 /Roboto set_font
708 1454.1 moveto 19 (      ) alignedtext
0 0 0 nodecolor
8 /Roboto set_font
567 1441.1 moveto 19 (      ) alignedtext
0 0 0.48235 nodecolor
8 /Roboto set_font
586 1441.1 moveto 19 (type) alignedtext
0 0 0 nodecolor
8 /Roboto set_font
605 1441.1 moveto 19 (      ) alignedtext
0 0 0 nodecolor
8 /Roboto set_font
649 1441.1 moveto 19 (      ) alignedtext
0 0 0.48235 nodecolor
8 /Roboto set_font
668 1441.1 moveto 40 (CharField) alignedtext
0 0 0 nodecolor
8 /Roboto set_font
708 1441.1 moveto 19 (      ) alignedtext
0 0 0 nodecolor
8 /Roboto set_font
567 1428.1 moveto 19 (      ) alignedtext
0 0 0.48235 nodecolor
8 /Roboto set_font
586 1428.1 moveto 12 (url) alignedtext
0 0 0 nodecolor
8 /Roboto set_font
598 1428.1 moveto 19 (      ) alignedtext
0 0 0 nodecolor
8 /Roboto set_font
649 1428.1 moveto 19 (      ) alignedtext
0 0 0.48235 nodecolor
8 /Roboto set_font
668 1428.1 moveto 36 (URLField) alignedtext
0 0 0 nodecolor
8 /Roboto set_font
704 1428.1 moveto 19 (      ) alignedtext
1 setlinewidth
solid
0 0 0 nodecolor
newpath 563.5 1422 moveto
563.5 1523 lineto
762.5 1523 lineto
762.5 1422 lineto
closepath stroke
grestore
% openlink_app_models_Download->django_contrib_auth_models_User
gsave
1 setlinewidth
0 0 0 edgecolor
newpath 711.5686 1410.8984 moveto
720.4636 1394.3191 727 1375.7553 727 1357 curveto
727 1357 727 1357 727 968 curveto
727 883.9044 799.0356 818.1655 865.3028 775.4825 curveto
stroke
0 0 0 edgecolor
709.5924 1414.3948 4 4 ellipse_path fill
1 setlinewidth
solid
0 0 0 edgecolor
709.5924 1414.3948 4 4 ellipse_path stroke
0 0 0 edgecolor
8 /Roboto set_font
727 1135.1 moveto 81 ( author \(download\)) alignedtext
grestore
% openlink_app_models_Link
gsave
0 0 1 nodecolor
newpath 796.5 1428.5 moveto
796.5 1516.5 lineto
995.5 1516.5 lineto
995.5 1428.5 lineto
closepath fill
0.43503 0.68605 0.33725 nodecolor
newpath 798 1494.5 moveto
798 1515.5 lineto
995 1515.5 lineto
995 1494.5 lineto
closepath fill
0 0 0 nodecolor
8 /Roboto set_font
853 1503.5 moveto 19 (      ) alignedtext
0 0 1 nodecolor
10 /Roboto set_font
872 1503.5 moveto 68 (      Link      ) alignedtext
0 0 0 nodecolor
8 /Roboto set_font
800 1487.1 moveto 19 (      ) alignedtext
0 0 0 nodecolor
8 /Roboto set_font
819 1487.1 moveto 10 (id) alignedtext
0 0 0 nodecolor
8 /Roboto set_font
829 1487.1 moveto 19 (      ) alignedtext
0 0 0 nodecolor
8 /Roboto set_font
882 1487.1 moveto 19 (      ) alignedtext
0 0 0 nodecolor
8 /Roboto set_font
901 1487.1 moveto 46 (AutoField) alignedtext
0 0 0 nodecolor
8 /Roboto set_font
947 1487.1 moveto 19 (      ) alignedtext
0 0 0 nodecolor
8 /Roboto set_font
800 1474.1 moveto 19 (      ) alignedtext
0 0 0 nodecolor
8 /Roboto set_font
819 1474.1 moveto 31 (author) alignedtext
0 0 0 nodecolor
8 /Roboto set_font
850 1474.1 moveto 19 (      ) alignedtext
0 0 0 nodecolor
8 /Roboto set_font
882 1474.1 moveto 19 (      ) alignedtext
0 0 0 nodecolor
8 /Roboto set_font
901 1474.1 moveto 73 (ForeignKey \(id\)) alignedtext
0 0 0 nodecolor
8 /Roboto set_font
974 1474.1 moveto 19 (      ) alignedtext
0 0 0 nodecolor
8 /Roboto set_font
800 1461.1 moveto 19 (      ) alignedtext
0 0 0.48235 nodecolor
8 /Roboto set_font
819 1461.1 moveto 40 (comment) alignedtext
0 0 0 nodecolor
8 /Roboto set_font
859 1461.1 moveto 19 (      ) alignedtext
0 0 0 nodecolor
8 /Roboto set_font
882 1461.1 moveto 19 (      ) alignedtext
0 0 0.48235 nodecolor
8 /Roboto set_font
901 1461.1 moveto 40 (CharField) alignedtext
0 0 0 nodecolor
8 /Roboto set_font
941 1461.1 moveto 19 (      ) alignedtext
0 0 0 nodecolor
8 /Roboto set_font
800 1448.1 moveto 19 (      ) alignedtext
0 0 0.48235 nodecolor
8 /Roboto set_font
819 1448.1 moveto 19 (type) alignedtext
0 0 0 nodecolor
8 /Roboto set_font
838 1448.1 moveto 19 (      ) alignedtext
0 0 0 nodecolor
8 /Roboto set_font
882 1448.1 moveto 19 (      ) alignedtext
0 0 0.48235 nodecolor
8 /Roboto set_font
901 1448.1 moveto 40 (CharField) alignedtext
0 0 0 nodecolor
8 /Roboto set_font
941 1448.1 moveto 19 (      ) alignedtext
0 0 0 nodecolor
8 /Roboto set_font
800 1435.1 moveto 19 (      ) alignedtext
0 0 0 nodecolor
8 /Roboto set_font
819 1435.1 moveto 12 (url) alignedtext
0 0 0 nodecolor
8 /Roboto set_font
831 1435.1 moveto 19 (      ) alignedtext
0 0 0 nodecolor
8 /Roboto set_font
882 1435.1 moveto 19 (      ) alignedtext
0 0 0 nodecolor
8 /Roboto set_font
901 1435.1 moveto 36 (URLField) alignedtext
0 0 0 nodecolor
8 /Roboto set_font
937 1435.1 moveto 19 (      ) alignedtext
1 setlinewidth
solid
0 0 0 nodecolor
newpath 796.5 1428.5 moveto
796.5 1516.5 lineto
995.5 1516.5 lineto
995.5 1428.5 lineto
closepath stroke
grestore
% openlink_app_models_Link->django_contrib_auth_models_User
gsave
1 setlinewidth
0 0 0 edgecolor
newpath 896 1416.2538 moveto
896 1397.4169 896 1376.3013 896 1357 curveto
896 1357 896 1357 896 968 curveto
896 914.417 912.7129 857.1946 930.6662 811.1832 curveto
stroke
0 0 0 edgecolor
896 1420.4534 4 4 ellipse_path fill
1 setlinewidth
solid
0 0 0 edgecolor
896 1420.4534 4 4 ellipse_path stroke
0 0 0 edgecolor
8 /Roboto set_font
896 1135.1 moveto 55 ( author \(link\)) alignedtext
grestore
% openlink_app_models_Documentation
gsave
0 0 1 nodecolor
newpath 330.5 1415.5 moveto
330.5 1529.5 lineto
529.5 1529.5 lineto
529.5 1415.5 lineto
closepath fill
0.43503 0.68605 0.33725 nodecolor
newpath 332 1507.5 moveto
332 1528.5 lineto
529 1528.5 lineto
529 1507.5 lineto
closepath fill
0 0 0 nodecolor
8 /Roboto set_font
356 1516.5 moveto 19 (      ) alignedtext
0 0 1 nodecolor
10 /Roboto set_font
375 1516.5 moveto 130 (      Documentation      ) alignedtext
0 0 0 nodecolor
8 /Roboto set_font
334 1500.1 moveto 19 (      ) alignedtext
0 0 0 nodecolor
8 /Roboto set_font
353 1500.1 moveto 10 (id) alignedtext
0 0 0 nodecolor
8 /Roboto set_font
363 1500.1 moveto 19 (      ) alignedtext
0 0 0 nodecolor
8 /Roboto set_font
416 1500.1 moveto 19 (      ) alignedtext
0 0 0 nodecolor
8 /Roboto set_font
435 1500.1 moveto 46 (AutoField) alignedtext
0 0 0 nodecolor
8 /Roboto set_font
481 1500.1 moveto 19 (      ) alignedtext
0 0 0 nodecolor
8 /Roboto set_font
334 1487.1 moveto 19 (      ) alignedtext
0 0 0 nodecolor
8 /Roboto set_font
353 1487.1 moveto 31 (author) alignedtext
0 0 0 nodecolor
8 /Roboto set_font
384 1487.1 moveto 19 (      ) alignedtext
0 0 0 nodecolor
8 /Roboto set_font
416 1487.1 moveto 19 (      ) alignedtext
0 0 0 nodecolor
8 /Roboto set_font
435 1487.1 moveto 73 (ForeignKey \(id\)) alignedtext
0 0 0 nodecolor
8 /Roboto set_font
508 1487.1 moveto 19 (      ) alignedtext
0 0 0 nodecolor
8 /Roboto set_font
334 1474.1 moveto 19 (      ) alignedtext
0 0 0.48235 nodecolor
8 /Roboto set_font
353 1474.1 moveto 19 (cmd) alignedtext
0 0 0 nodecolor
8 /Roboto set_font
372 1474.1 moveto 19 (      ) alignedtext
0 0 0 nodecolor
8 /Roboto set_font
416 1474.1 moveto 19 (      ) alignedtext
0 0 0.48235 nodecolor
8 /Roboto set_font
435 1474.1 moveto 40 (CharField) alignedtext
0 0 0 nodecolor
8 /Roboto set_font
475 1474.1 moveto 19 (      ) alignedtext
0 0 0 nodecolor
8 /Roboto set_font
334 1461.1 moveto 19 (      ) alignedtext
0 0 0.48235 nodecolor
8 /Roboto set_font
353 1461.1 moveto 40 (comment) alignedtext
0 0 0 nodecolor
8 /Roboto set_font
393 1461.1 moveto 19 (      ) alignedtext
0 0 0 nodecolor
8 /Roboto set_font
416 1461.1 moveto 19 (      ) alignedtext
0 0 0.48235 nodecolor
8 /Roboto set_font
435 1461.1 moveto 40 (CharField) alignedtext
0 0 0 nodecolor
8 /Roboto set_font
475 1461.1 moveto 19 (      ) alignedtext
0 0 0 nodecolor
8 /Roboto set_font
334 1448.1 moveto 19 (      ) alignedtext
0 0 0.48235 nodecolor
8 /Roboto set_font
353 1448.1 moveto 19 (type) alignedtext
0 0 0 nodecolor
8 /Roboto set_font
372 1448.1 moveto 19 (      ) alignedtext
0 0 0 nodecolor
8 /Roboto set_font
416 1448.1 moveto 19 (      ) alignedtext
0 0 0.48235 nodecolor
8 /Roboto set_font
435 1448.1 moveto 40 (CharField) alignedtext
0 0 0 nodecolor
8 /Roboto set_font
475 1448.1 moveto 19 (      ) alignedtext
0 0 0 nodecolor
8 /Roboto set_font
334 1435.1 moveto 19 (      ) alignedtext
0 0 0 nodecolor
8 /Roboto set_font
353 1435.1 moveto 12 (url) alignedtext
0 0 0 nodecolor
8 /Roboto set_font
365 1435.1 moveto 19 (      ) alignedtext
0 0 0 nodecolor
8 /Roboto set_font
416 1435.1 moveto 19 (      ) alignedtext
0 0 0 nodecolor
8 /Roboto set_font
435 1435.1 moveto 40 (CharField) alignedtext
0 0 0 nodecolor
8 /Roboto set_font
475 1435.1 moveto 19 (      ) alignedtext
0 0 0 nodecolor
8 /Roboto set_font
334 1422.1 moveto 19 (      ) alignedtext
0 0 0.48235 nodecolor
8 /Roboto set_font
353 1422.1 moveto 32 (version) alignedtext
0 0 0 nodecolor
8 /Roboto set_font
385 1422.1 moveto 19 (      ) alignedtext
0 0 0 nodecolor
8 /Roboto set_font
416 1422.1 moveto 19 (      ) alignedtext
0 0 0.48235 nodecolor
8 /Roboto set_font
435 1422.1 moveto 40 (CharField) alignedtext
0 0 0 nodecolor
8 /Roboto set_font
475 1422.1 moveto 19 (      ) alignedtext
1 setlinewidth
solid
0 0 0 nodecolor
newpath 330.5 1415.5 moveto
330.5 1529.5 lineto
529.5 1529.5 lineto
529.5 1415.5 lineto
closepath stroke
grestore
% openlink_app_models_Documentation->django_contrib_auth_models_User
gsave
1 setlinewidth
0 0 0 edgecolor
newpath 533.144 1405.0655 moveto
543.9019 1391.0661 551 1375.0065 551 1357 curveto
551 1357 551 1357 551 968 curveto
551 822.2488 740.0111 760.316 865.3417 735.2703 curveto
stroke
0 0 0 edgecolor
530.502 1408.2671 4 4 ellipse_path fill
1 setlinewidth
solid
0 0 0 edgecolor
530.502 1408.2671 4 4 ellipse_path stroke
0 0 0 edgecolor
8 /Roboto set_font
551 1135.1 moveto 103 ( author \(documentation\)) alignedtext
grestore
% openlink_app_models_Dataset
gsave
0 0 1 nodecolor
newpath 1095.5 885 moveto
1095.5 1051 lineto
1314.5 1051 lineto
1314.5 885 lineto
closepath fill
0.43503 0.68605 0.33725 nodecolor
newpath 1097 1029 moveto
1097 1050 lineto
1314 1050 lineto
1314 1029 lineto
closepath fill
0 0 0 nodecolor
8 /Roboto set_font
1151.5 1038 moveto 19 (      ) alignedtext
0 0 1 nodecolor
10 /Roboto set_font
1170.5 1038 moveto 89 (      Dataset      ) alignedtext
0 0 0 nodecolor
8 /Roboto set_font
1099 1021.6 moveto 19 (      ) alignedtext
0 0 0 nodecolor
8 /Roboto set_font
1118 1021.6 moveto 10 (id) alignedtext
0 0 0 nodecolor
8 /Roboto set_font
1128 1021.6 moveto 19 (      ) alignedtext
0 0 0 nodecolor
8 /Roboto set_font
1201 1021.6 moveto 19 (      ) alignedtext
0 0 0 nodecolor
8 /Roboto set_font
1220 1021.6 moveto 46 (AutoField) alignedtext
0 0 0 nodecolor
8 /Roboto set_font
1266 1021.6 moveto 19 (      ) alignedtext
0 0 0 nodecolor
8 /Roboto set_font
1099 1008.6 moveto 19 (      ) alignedtext
0 0 0 nodecolor
8 /Roboto set_font
1118 1008.6 moveto 31 (author) alignedtext
0 0 0 nodecolor
8 /Roboto set_font
1149 1008.6 moveto 19 (      ) alignedtext
0 0 0 nodecolor
8 /Roboto set_font
1201 1008.6 moveto 19 (      ) alignedtext
0 0 0 nodecolor
8 /Roboto set_font
1220 1008.6 moveto 73 (ForeignKey \(id\)) alignedtext
0 0 0 nodecolor
8 /Roboto set_font
1293 1008.6 moveto 19 (      ) alignedtext
0 0 0 nodecolor
8 /Roboto set_font
1099 995.6 moveto 19 (      ) alignedtext
0 0 0.48235 nodecolor
8 /Roboto set_font
1118 995.6 moveto 60 (datePublished) alignedtext
0 0 0 nodecolor
8 /Roboto set_font
1178 995.6 moveto 19 (      ) alignedtext
0 0 0 nodecolor
8 /Roboto set_font
1201 995.6 moveto 19 (      ) alignedtext
0 0 0.48235 nodecolor
8 /Roboto set_font
1220 995.6 moveto 60 (DateTimeField) alignedtext
0 0 0 nodecolor
8 /Roboto set_font
1280 995.6 moveto 19 (      ) alignedtext
0 0 0 nodecolor
8 /Roboto set_font
1099 982.6 moveto 19 (      ) alignedtext
0 0 0.48235 nodecolor
8 /Roboto set_font
1118 982.6 moveto 47 (description) alignedtext
0 0 0 nodecolor
8 /Roboto set_font
1165 982.6 moveto 19 (      ) alignedtext
0 0 0 nodecolor
8 /Roboto set_font
1201 982.6 moveto 19 (      ) alignedtext
0 0 0.48235 nodecolor
8 /Roboto set_font
1220 982.6 moveto 40 (CharField) alignedtext
0 0 0 nodecolor
8 /Roboto set_font
1260 982.6 moveto 19 (      ) alignedtext
0 0 0 nodecolor
8 /Roboto set_font
1099 969.6 moveto 19 (      ) alignedtext
0 0 0.48235 nodecolor
8 /Roboto set_font
1118 969.6 moveto 31 (id_dmp) alignedtext
0 0 0 nodecolor
8 /Roboto set_font
1149 969.6 moveto 19 (      ) alignedtext
0 0 0 nodecolor
8 /Roboto set_font
1201 969.6 moveto 19 (      ) alignedtext
0 0 0.48235 nodecolor
8 /Roboto set_font
1220 969.6 moveto 40 (CharField) alignedtext
0 0 0 nodecolor
8 /Roboto set_font
1260 969.6 moveto 19 (      ) alignedtext
0 0 0 nodecolor
8 /Roboto set_font
1099 956.6 moveto 19 (      ) alignedtext
0 0 0.48235 nodecolor
8 /Roboto set_font
1118 956.6 moveto 45 (id_labguru) alignedtext
0 0 0 nodecolor
8 /Roboto set_font
1163 956.6 moveto 19 (      ) alignedtext
0 0 0 nodecolor
8 /Roboto set_font
1201 956.6 moveto 19 (      ) alignedtext
0 0 0.48235 nodecolor
8 /Roboto set_font
1220 956.6 moveto 40 (CharField) alignedtext
0 0 0 nodecolor
8 /Roboto set_font
1260 956.6 moveto 19 (      ) alignedtext
0 0 0 nodecolor
8 /Roboto set_font
1099 943.6 moveto 19 (      ) alignedtext
0 0 0.48235 nodecolor
8 /Roboto set_font
1118 943.6 moveto 40 (id_omero) alignedtext
0 0 0 nodecolor
8 /Roboto set_font
1158 943.6 moveto 19 (      ) alignedtext
0 0 0 nodecolor
8 /Roboto set_font
1201 943.6 moveto 19 (      ) alignedtext
0 0 0.48235 nodecolor
8 /Roboto set_font
1220 943.6 moveto 40 (CharField) alignedtext
0 0 0 nodecolor
8 /Roboto set_font
1260 943.6 moveto 19 (      ) alignedtext
0 0 0 nodecolor
8 /Roboto set_font
1099 930.6 moveto 19 (      ) alignedtext
0 0 0.48235 nodecolor
8 /Roboto set_font
1118 930.6 moveto 41 (keywords) alignedtext
0 0 0 nodecolor
8 /Roboto set_font
1159 930.6 moveto 19 (      ) alignedtext
0 0 0 nodecolor
8 /Roboto set_font
1201 930.6 moveto 19 (      ) alignedtext
0 0 0.48235 nodecolor
8 /Roboto set_font
1220 930.6 moveto 40 (CharField) alignedtext
0 0 0 nodecolor
8 /Roboto set_font
1260 930.6 moveto 19 (      ) alignedtext
0 0 0 nodecolor
8 /Roboto set_font
1099 917.6 moveto 19 (      ) alignedtext
0 0 0.48235 nodecolor
8 /Roboto set_font
1118 917.6 moveto 25 (name) alignedtext
0 0 0 nodecolor
8 /Roboto set_font
1143 917.6 moveto 19 (      ) alignedtext
0 0 0 nodecolor
8 /Roboto set_font
1201 917.6 moveto 19 (      ) alignedtext
0 0 0.48235 nodecolor
8 /Roboto set_font
1220 917.6 moveto 40 (CharField) alignedtext
0 0 0 nodecolor
8 /Roboto set_font
1260 917.6 moveto 19 (      ) alignedtext
0 0 0 nodecolor
8 /Roboto set_font
1099 904.6 moveto 19 (      ) alignedtext
0 0 0.48235 nodecolor
8 /Roboto set_font
1118 904.6 moveto 12 (url) alignedtext
0 0 0 nodecolor
8 /Roboto set_font
1130 904.6 moveto 19 (      ) alignedtext
0 0 0 nodecolor
8 /Roboto set_font
1201 904.6 moveto 19 (      ) alignedtext
0 0 0.48235 nodecolor
8 /Roboto set_font
1220 904.6 moveto 36 (URLField) alignedtext
0 0 0 nodecolor
8 /Roboto set_font
1256 904.6 moveto 19 (      ) alignedtext
0 0 0 nodecolor
8 /Roboto set_font
1099 891.6 moveto 19 (      ) alignedtext
0 0 0.48235 nodecolor
8 /Roboto set_font
1118 891.6 moveto 32 (version) alignedtext
0 0 0 nodecolor
8 /Roboto set_font
1150 891.6 moveto 19 (      ) alignedtext
0 0 0 nodecolor
8 /Roboto set_font
1201 891.6 moveto 19 (      ) alignedtext
0 0 0.48235 nodecolor
8 /Roboto set_font
1220 891.6 moveto 40 (CharField) alignedtext
0 0 0 nodecolor
8 /Roboto set_font
1260 891.6 moveto 19 (      ) alignedtext
1 setlinewidth
solid
0 0 0 nodecolor
newpath 1095.5 885 moveto
1095.5 1051 lineto
1314.5 1051 lineto
1314.5 885 lineto
closepath stroke
grestore
% openlink_app_models_Dataset->django_contrib_auth_models_User
gsave
1 setlinewidth
0 0 0 edgecolor
newpath 1118.2037 874.6282 moveto
1098.9058 853.8683 1078.4665 831.8806 1059.2321 811.1891 curveto
stroke
0 0 0 edgecolor
1121.1595 877.8079 4 4 ellipse_path fill
1 setlinewidth
solid
0 0 0 edgecolor
1121.1595 877.8079 4 4 ellipse_path stroke
0 0 0 edgecolor
8 /Roboto set_font
1103 856.6 moveto 72 ( author \(dataset\)) alignedtext
grestore
% openlink_app_models_Screen
gsave
0 0 1 nodecolor
newpath 1254.5 1688 moveto
1254.5 1828 lineto
1473.5 1828 lineto
1473.5 1688 lineto
closepath fill
0.43503 0.68605 0.33725 nodecolor
newpath 1256 1806 moveto
1256 1827 lineto
1473 1827 lineto
1473 1806 lineto
closepath fill
0 0 0 nodecolor
8 /Roboto set_font
1313.5 1815 moveto 19 (      ) alignedtext
0 0 1 nodecolor
10 /Roboto set_font
1332.5 1815 moveto 83 (      Screen      ) alignedtext
0 0 0 nodecolor
8 /Roboto set_font
1258 1798.6 moveto 19 (      ) alignedtext
0 0 0 nodecolor
8 /Roboto set_font
1277 1798.6 moveto 10 (id) alignedtext
0 0 0 nodecolor
8 /Roboto set_font
1287 1798.6 moveto 19 (      ) alignedtext
0 0 0 nodecolor
8 /Roboto set_font
1360 1798.6 moveto 19 (      ) alignedtext
0 0 0 nodecolor
8 /Roboto set_font
1379 1798.6 moveto 46 (AutoField) alignedtext
0 0 0 nodecolor
8 /Roboto set_font
1425 1798.6 moveto 19 (      ) alignedtext
0 0 0 nodecolor
8 /Roboto set_font
1258 1785.6 moveto 19 (      ) alignedtext
0 0 0 nodecolor
8 /Roboto set_font
1277 1785.6 moveto 31 (author) alignedtext
0 0 0 nodecolor
8 /Roboto set_font
1308 1785.6 moveto 19 (      ) alignedtext
0 0 0 nodecolor
8 /Roboto set_font
1360 1785.6 moveto 19 (      ) alignedtext
0 0 0 nodecolor
8 /Roboto set_font
1379 1785.6 moveto 73 (ForeignKey \(id\)) alignedtext
0 0 0 nodecolor
8 /Roboto set_font
1452 1785.6 moveto 19 (      ) alignedtext
0 0 0 nodecolor
8 /Roboto set_font
1258 1772.6 moveto 19 (      ) alignedtext
0 0 0.48235 nodecolor
8 /Roboto set_font
1277 1772.6 moveto 60 (datePublished) alignedtext
0 0 0 nodecolor
8 /Roboto set_font
1337 1772.6 moveto 19 (      ) alignedtext
0 0 0 nodecolor
8 /Roboto set_font
1360 1772.6 moveto 19 (      ) alignedtext
0 0 0.48235 nodecolor
8 /Roboto set_font
1379 1772.6 moveto 60 (DateTimeField) alignedtext
0 0 0 nodecolor
8 /Roboto set_font
1439 1772.6 moveto 19 (      ) alignedtext
0 0 0 nodecolor
8 /Roboto set_font
1258 1759.6 moveto 19 (      ) alignedtext
0 0 0.48235 nodecolor
8 /Roboto set_font
1277 1759.6 moveto 47 (description) alignedtext
0 0 0 nodecolor
8 /Roboto set_font
1324 1759.6 moveto 19 (      ) alignedtext
0 0 0 nodecolor
8 /Roboto set_font
1360 1759.6 moveto 19 (      ) alignedtext
0 0 0.48235 nodecolor
8 /Roboto set_font
1379 1759.6 moveto 40 (CharField) alignedtext
0 0 0 nodecolor
8 /Roboto set_font
1419 1759.6 moveto 19 (      ) alignedtext
0 0 0 nodecolor
8 /Roboto set_font
1258 1746.6 moveto 19 (      ) alignedtext
0 0 0.48235 nodecolor
8 /Roboto set_font
1277 1746.6 moveto 40 (id_omero) alignedtext
0 0 0 nodecolor
8 /Roboto set_font
1317 1746.6 moveto 19 (      ) alignedtext
0 0 0 nodecolor
8 /Roboto set_font
1360 1746.6 moveto 19 (      ) alignedtext
0 0 0.48235 nodecolor
8 /Roboto set_font
1379 1746.6 moveto 40 (CharField) alignedtext
0 0 0 nodecolor
8 /Roboto set_font
1419 1746.6 moveto 19 (      ) alignedtext
0 0 0 nodecolor
8 /Roboto set_font
1258 1733.6 moveto 19 (      ) alignedtext
0 0 0.48235 nodecolor
8 /Roboto set_font
1277 1733.6 moveto 41 (keywords) alignedtext
0 0 0 nodecolor
8 /Roboto set_font
1318 1733.6 moveto 19 (      ) alignedtext
0 0 0 nodecolor
8 /Roboto set_font
1360 1733.6 moveto 19 (      ) alignedtext
0 0 0.48235 nodecolor
8 /Roboto set_font
1379 1733.6 moveto 40 (CharField) alignedtext
0 0 0 nodecolor
8 /Roboto set_font
1419 1733.6 moveto 19 (      ) alignedtext
0 0 0 nodecolor
8 /Roboto set_font
1258 1720.6 moveto 19 (      ) alignedtext
0 0 0.48235 nodecolor
8 /Roboto set_font
1277 1720.6 moveto 25 (name) alignedtext
0 0 0 nodecolor
8 /Roboto set_font
1302 1720.6 moveto 19 (      ) alignedtext
0 0 0 nodecolor
8 /Roboto set_font
1360 1720.6 moveto 19 (      ) alignedtext
0 0 0.48235 nodecolor
8 /Roboto set_font
1379 1720.6 moveto 40 (CharField) alignedtext
0 0 0 nodecolor
8 /Roboto set_font
1419 1720.6 moveto 19 (      ) alignedtext
0 0 0 nodecolor
8 /Roboto set_font
1258 1707.6 moveto 19 (      ) alignedtext
0 0 0.48235 nodecolor
8 /Roboto set_font
1277 1707.6 moveto 12 (url) alignedtext
0 0 0 nodecolor
8 /Roboto set_font
1289 1707.6 moveto 19 (      ) alignedtext
0 0 0 nodecolor
8 /Roboto set_font
1360 1707.6 moveto 19 (      ) alignedtext
0 0 0.48235 nodecolor
8 /Roboto set_font
1379 1707.6 moveto 36 (URLField) alignedtext
0 0 0 nodecolor
8 /Roboto set_font
1415 1707.6 moveto 19 (      ) alignedtext
0 0 0 nodecolor
8 /Roboto set_font
1258 1694.6 moveto 19 (      ) alignedtext
0 0 0.48235 nodecolor
8 /Roboto set_font
1277 1694.6 moveto 32 (version) alignedtext
0 0 0 nodecolor
8 /Roboto set_font
1309 1694.6 moveto 19 (      ) alignedtext
0 0 0 nodecolor
8 /Roboto set_font
1360 1694.6 moveto 19 (      ) alignedtext
0 0 0.48235 nodecolor
8 /Roboto set_font
1379 1694.6 moveto 40 (CharField) alignedtext
0 0 0 nodecolor
8 /Roboto set_font
1419 1694.6 moveto 19 (      ) alignedtext
1 setlinewidth
solid
0 0 0 nodecolor
newpath 1254.5 1688 moveto
1254.5 1828 lineto
1473.5 1828 lineto
1473.5 1688 lineto
closepath stroke
grestore
% openlink_app_models_Screen->django_contrib_auth_models_User
gsave
1 setlinewidth
0 0 0 edgecolor
newpath 1489.1715 1721.2575 moveto
1546.9724 1695.8345 1603 1655.0571 1603 1592.5 curveto
1603 1592.5 1603 1592.5 1603 968 curveto
1603 913.0864 1570.0941 902.8469 1524 873 curveto
1387.322 784.4982 1199.6207 746.3735 1082.6332 730.4139 curveto
stroke
0 0 0 edgecolor
1485.4266 1722.8611 4 4 ellipse_path fill
1 setlinewidth
solid
0 0 0 edgecolor
1485.4266 1722.8611 4 4 ellipse_path stroke
0 0 0 edgecolor
8 /Roboto set_font
1603 1328.1 moveto 69 ( author \(screen\)) alignedtext
grestore
% openlink_app_models_Experiment
gsave
0 0 1 nodecolor
newpath 1029.5 1163.5 moveto
1029.5 1303.5 lineto
1248.5 1303.5 lineto
1248.5 1163.5 lineto
closepath fill
0.43503 0.68605 0.33725 nodecolor
newpath 1031 1281.5 moveto
1031 1302.5 lineto
1248 1302.5 lineto
1248 1281.5 lineto
closepath fill
0 0 0 nodecolor
8 /Roboto set_font
1076 1290.5 moveto 19 (      ) alignedtext
0 0 1 nodecolor
10 /Roboto set_font
1095 1290.5 moveto 108 (      Experiment      ) alignedtext
0 0 0 nodecolor
8 /Roboto set_font
1033 1274.1 moveto 19 (      ) alignedtext
0 0 0 nodecolor
8 /Roboto set_font
1052 1274.1 moveto 10 (id) alignedtext
0 0 0 nodecolor
8 /Roboto set_font
1062 1274.1 moveto 19 (      ) alignedtext
0 0 0 nodecolor
8 /Roboto set_font
1135 1274.1 moveto 19 (      ) alignedtext
0 0 0 nodecolor
8 /Roboto set_font
1154 1274.1 moveto 46 (AutoField) alignedtext
0 0 0 nodecolor
8 /Roboto set_font
1200 1274.1 moveto 19 (      ) alignedtext
0 0 0 nodecolor
8 /Roboto set_font
1033 1261.1 moveto 19 (      ) alignedtext
0 0 0 nodecolor
8 /Roboto set_font
1052 1261.1 moveto 31 (author) alignedtext
0 0 0 nodecolor
8 /Roboto set_font
1083 1261.1 moveto 19 (      ) alignedtext
0 0 0 nodecolor
8 /Roboto set_font
1135 1261.1 moveto 19 (      ) alignedtext
0 0 0 nodecolor
8 /Roboto set_font
1154 1261.1 moveto 73 (ForeignKey \(id\)) alignedtext
0 0 0 nodecolor
8 /Roboto set_font
1227 1261.1 moveto 19 (      ) alignedtext
0 0 0 nodecolor
8 /Roboto set_font
1033 1248.1 moveto 19 (      ) alignedtext
0 0 0.48235 nodecolor
8 /Roboto set_font
1052 1248.1 moveto 60 (datePublished) alignedtext
0 0 0 nodecolor
8 /Roboto set_font
1112 1248.1 moveto 19 (      ) alignedtext
0 0 0 nodecolor
8 /Roboto set_font
1135 1248.1 moveto 19 (      ) alignedtext
0 0 0.48235 nodecolor
8 /Roboto set_font
1154 1248.1 moveto 60 (DateTimeField) alignedtext
0 0 0 nodecolor
8 /Roboto set_font
1214 1248.1 moveto 19 (      ) alignedtext
0 0 0 nodecolor
8 /Roboto set_font
1033 1235.1 moveto 19 (      ) alignedtext
0 0 0.48235 nodecolor
8 /Roboto set_font
1052 1235.1 moveto 47 (description) alignedtext
0 0 0 nodecolor
8 /Roboto set_font
1099 1235.1 moveto 19 (      ) alignedtext
0 0 0 nodecolor
8 /Roboto set_font
1135 1235.1 moveto 19 (      ) alignedtext
0 0 0.48235 nodecolor
8 /Roboto set_font
1154 1235.1 moveto 40 (CharField) alignedtext
0 0 0 nodecolor
8 /Roboto set_font
1194 1235.1 moveto 19 (      ) alignedtext
0 0 0 nodecolor
8 /Roboto set_font
1033 1222.1 moveto 19 (      ) alignedtext
0 0 0.48235 nodecolor
8 /Roboto set_font
1052 1222.1 moveto 45 (id_labguru) alignedtext
0 0 0 nodecolor
8 /Roboto set_font
1097 1222.1 moveto 19 (      ) alignedtext
0 0 0 nodecolor
8 /Roboto set_font
1135 1222.1 moveto 19 (      ) alignedtext
0 0 0.48235 nodecolor
8 /Roboto set_font
1154 1222.1 moveto 40 (CharField) alignedtext
0 0 0 nodecolor
8 /Roboto set_font
1194 1222.1 moveto 19 (      ) alignedtext
0 0 0 nodecolor
8 /Roboto set_font
1033 1209.1 moveto 19 (      ) alignedtext
0 0 0.48235 nodecolor
8 /Roboto set_font
1052 1209.1 moveto 41 (keywords) alignedtext
0 0 0 nodecolor
8 /Roboto set_font
1093 1209.1 moveto 19 (      ) alignedtext
0 0 0 nodecolor
8 /Roboto set_font
1135 1209.1 moveto 19 (      ) alignedtext
0 0 0.48235 nodecolor
8 /Roboto set_font
1154 1209.1 moveto 40 (CharField) alignedtext
0 0 0 nodecolor
8 /Roboto set_font
1194 1209.1 moveto 19 (      ) alignedtext
0 0 0 nodecolor
8 /Roboto set_font
1033 1196.1 moveto 19 (      ) alignedtext
0 0 0.48235 nodecolor
8 /Roboto set_font
1052 1196.1 moveto 25 (name) alignedtext
0 0 0 nodecolor
8 /Roboto set_font
1077 1196.1 moveto 19 (      ) alignedtext
0 0 0 nodecolor
8 /Roboto set_font
1135 1196.1 moveto 19 (      ) alignedtext
0 0 0.48235 nodecolor
8 /Roboto set_font
1154 1196.1 moveto 40 (CharField) alignedtext
0 0 0 nodecolor
8 /Roboto set_font
1194 1196.1 moveto 19 (      ) alignedtext
0 0 0 nodecolor
8 /Roboto set_font
1033 1183.1 moveto 19 (      ) alignedtext
0 0 0.48235 nodecolor
8 /Roboto set_font
1052 1183.1 moveto 12 (url) alignedtext
0 0 0 nodecolor
8 /Roboto set_font
1064 1183.1 moveto 19 (      ) alignedtext
0 0 0 nodecolor
8 /Roboto set_font
1135 1183.1 moveto 19 (      ) alignedtext
0 0 0.48235 nodecolor
8 /Roboto set_font
1154 1183.1 moveto 36 (URLField) alignedtext
0 0 0 nodecolor
8 /Roboto set_font
1190 1183.1 moveto 19 (      ) alignedtext
0 0 0 nodecolor
8 /Roboto set_font
1033 1170.1 moveto 19 (      ) alignedtext
0 0 0.48235 nodecolor
8 /Roboto set_font
1052 1170.1 moveto 32 (version) alignedtext
0 0 0 nodecolor
8 /Roboto set_font
1084 1170.1 moveto 19 (      ) alignedtext
0 0 0 nodecolor
8 /Roboto set_font
1135 1170.1 moveto 19 (      ) alignedtext
0 0 0.48235 nodecolor
8 /Roboto set_font
1154 1170.1 moveto 40 (CharField) alignedtext
0 0 0 nodecolor
8 /Roboto set_font
1194 1170.1 moveto 19 (      ) alignedtext
1 setlinewidth
solid
0 0 0 nodecolor
newpath 1029.5 1163.5 moveto
1029.5 1303.5 lineto
1248.5 1303.5 lineto
1248.5 1163.5 lineto
closepath stroke
grestore
% openlink_app_models_Experiment->django_contrib_auth_models_User
gsave
1 setlinewidth
0 0 0 edgecolor
newpath 1105.6334 1151.7202 moveto
1097.539 1130.9061 1089.1611 1108.4863 1082 1087.5 curveto
1050.2298 994.3942 1019.157 886.1792 998.5593 811.3091 curveto
stroke
0 0 0 edgecolor
1107.1438 1155.5848 4 4 ellipse_path fill
1 setlinewidth
solid
0 0 0 edgecolor
1107.1438 1155.5848 4 4 ellipse_path stroke
0 0 0 edgecolor
8 /Roboto set_font
1082 1081.1 moveto 89 ( author \(experiment\)) alignedtext
grestore
% openlink_app_models_Experiment->openlink_app_models_Dataset
gsave
1 setlinewidth
0 0 0 edgecolor
newpath 1159.4706 1151.1522 moveto
1166.3724 1123.3882 1174.1329 1092.17 1181.265 1063.4793 curveto
stroke
0 0 0 edgecolor
1158.4375 1155.3085 4 4 ellipse_path fill
1 setlinewidth
solid
0 0 0 edgecolor
1158.4375 1155.3085 4 4 ellipse_path stroke
0 0 0 edgecolor
1182.2938 1059.3409 4 4 ellipse_path fill
1 setlinewidth
solid
0 0 0 edgecolor
1182.2938 1059.3409 4 4 ellipse_path stroke
0 0 0 edgecolor
8 /Roboto set_font
1169 1108.1 moveto 93 ( dataset \(experiment\)) alignedtext
grestore
% openlink_app_models_Folder
gsave
0 0 1 nodecolor
newpath 1029.5 1402.5 moveto
1029.5 1542.5 lineto
1248.5 1542.5 lineto
1248.5 1402.5 lineto
closepath fill
0.43503 0.68605 0.33725 nodecolor
newpath 1031 1520.5 moveto
1031 1541.5 lineto
1248 1541.5 lineto
1248 1520.5 lineto
closepath fill
0 0 0 nodecolor
8 /Roboto set_font
1090.5 1529.5 moveto 19 (      ) alignedtext
0 0 1 nodecolor
10 /Roboto set_font
1109.5 1529.5 moveto 79 (      Folder      ) alignedtext
0 0 0 nodecolor
8 /Roboto set_font
1033 1513.1 moveto 19 (      ) alignedtext
0 0 0 nodecolor
8 /Roboto set_font
1052 1513.1 moveto 10 (id) alignedtext
0 0 0 nodecolor
8 /Roboto set_font
1062 1513.1 moveto 19 (      ) alignedtext
0 0 0 nodecolor
8 /Roboto set_font
1135 1513.1 moveto 19 (      ) alignedtext
0 0 0 nodecolor
8 /Roboto set_font
1154 1513.1 moveto 46 (AutoField) alignedtext
0 0 0 nodecolor
8 /Roboto set_font
1200 1513.1 moveto 19 (      ) alignedtext
0 0 0 nodecolor
8 /Roboto set_font
1033 1500.1 moveto 19 (      ) alignedtext
0 0 0 nodecolor
8 /Roboto set_font
1052 1500.1 moveto 31 (author) alignedtext
0 0 0 nodecolor
8 /Roboto set_font
1083 1500.1 moveto 19 (      ) alignedtext
0 0 0 nodecolor
8 /Roboto set_font
1135 1500.1 moveto 19 (      ) alignedtext
0 0 0 nodecolor
8 /Roboto set_font
1154 1500.1 moveto 73 (ForeignKey \(id\)) alignedtext
0 0 0 nodecolor
8 /Roboto set_font
1227 1500.1 moveto 19 (      ) alignedtext
0 0 0 nodecolor
8 /Roboto set_font
1033 1487.1 moveto 19 (      ) alignedtext
0 0 0.48235 nodecolor
8 /Roboto set_font
1052 1487.1 moveto 60 (datePublished) alignedtext
0 0 0 nodecolor
8 /Roboto set_font
1112 1487.1 moveto 19 (      ) alignedtext
0 0 0 nodecolor
8 /Roboto set_font
1135 1487.1 moveto 19 (      ) alignedtext
0 0 0.48235 nodecolor
8 /Roboto set_font
1154 1487.1 moveto 60 (DateTimeField) alignedtext
0 0 0 nodecolor
8 /Roboto set_font
1214 1487.1 moveto 19 (      ) alignedtext
0 0 0 nodecolor
8 /Roboto set_font
1033 1474.1 moveto 19 (      ) alignedtext
0 0 0.48235 nodecolor
8 /Roboto set_font
1052 1474.1 moveto 47 (description) alignedtext
0 0 0 nodecolor
8 /Roboto set_font
1099 1474.1 moveto 19 (      ) alignedtext
0 0 0 nodecolor
8 /Roboto set_font
1135 1474.1 moveto 19 (      ) alignedtext
0 0 0.48235 nodecolor
8 /Roboto set_font
1154 1474.1 moveto 40 (CharField) alignedtext
0 0 0 nodecolor
8 /Roboto set_font
1194 1474.1 moveto 19 (      ) alignedtext
0 0 0 nodecolor
8 /Roboto set_font
1033 1461.1 moveto 19 (      ) alignedtext
0 0 0.48235 nodecolor
8 /Roboto set_font
1052 1461.1 moveto 45 (id_labguru) alignedtext
0 0 0 nodecolor
8 /Roboto set_font
1097 1461.1 moveto 19 (      ) alignedtext
0 0 0 nodecolor
8 /Roboto set_font
1135 1461.1 moveto 19 (      ) alignedtext
0 0 0.48235 nodecolor
8 /Roboto set_font
1154 1461.1 moveto 40 (CharField) alignedtext
0 0 0 nodecolor
8 /Roboto set_font
1194 1461.1 moveto 19 (      ) alignedtext
0 0 0 nodecolor
8 /Roboto set_font
1033 1448.1 moveto 19 (      ) alignedtext
0 0 0.48235 nodecolor
8 /Roboto set_font
1052 1448.1 moveto 41 (keywords) alignedtext
0 0 0 nodecolor
8 /Roboto set_font
1093 1448.1 moveto 19 (      ) alignedtext
0 0 0 nodecolor
8 /Roboto set_font
1135 1448.1 moveto 19 (      ) alignedtext
0 0 0.48235 nodecolor
8 /Roboto set_font
1154 1448.1 moveto 40 (CharField) alignedtext
0 0 0 nodecolor
8 /Roboto set_font
1194 1448.1 moveto 19 (      ) alignedtext
0 0 0 nodecolor
8 /Roboto set_font
1033 1435.1 moveto 19 (      ) alignedtext
0 0 0.48235 nodecolor
8 /Roboto set_font
1052 1435.1 moveto 25 (name) alignedtext
0 0 0 nodecolor
8 /Roboto set_font
1077 1435.1 moveto 19 (      ) alignedtext
0 0 0 nodecolor
8 /Roboto set_font
1135 1435.1 moveto 19 (      ) alignedtext
0 0 0.48235 nodecolor
8 /Roboto set_font
1154 1435.1 moveto 40 (CharField) alignedtext
0 0 0 nodecolor
8 /Roboto set_font
1194 1435.1 moveto 19 (      ) alignedtext
0 0 0 nodecolor
8 /Roboto set_font
1033 1422.1 moveto 19 (      ) alignedtext
0 0 0.48235 nodecolor
8 /Roboto set_font
1052 1422.1 moveto 12 (url) alignedtext
0 0 0 nodecolor
8 /Roboto set_font
1064 1422.1 moveto 19 (      ) alignedtext
0 0 0 nodecolor
8 /Roboto set_font
1135 1422.1 moveto 19 (      ) alignedtext
0 0 0.48235 nodecolor
8 /Roboto set_font
1154 1422.1 moveto 36 (URLField) alignedtext
0 0 0 nodecolor
8 /Roboto set_font
1190 1422.1 moveto 19 (      ) alignedtext
0 0 0 nodecolor
8 /Roboto set_font
1033 1409.1 moveto 19 (      ) alignedtext
0 0 0.48235 nodecolor
8 /Roboto set_font
1052 1409.1 moveto 32 (version) alignedtext
0 0 0 nodecolor
8 /Roboto set_font
1084 1409.1 moveto 19 (      ) alignedtext
0 0 0 nodecolor
8 /Roboto set_font
1135 1409.1 moveto 19 (      ) alignedtext
0 0 0.48235 nodecolor
8 /Roboto set_font
1154 1409.1 moveto 40 (CharField) alignedtext
0 0 0 nodecolor
8 /Roboto set_font
1194 1409.1 moveto 19 (      ) alignedtext
1 setlinewidth
solid
0 0 0 nodecolor
newpath 1029.5 1402.5 moveto
1029.5 1542.5 lineto
1248.5 1542.5 lineto
1248.5 1402.5 lineto
closepath stroke
grestore
% openlink_app_models_Folder->django_contrib_auth_models_User
gsave
1 setlinewidth
0 0 0 edgecolor
newpath 1014.5517 1395.3252 moveto
991.2287 1378.8494 974 1364.2313 974 1357 curveto
974 1357 974 1357 974 968 curveto
974 916.1213 974 858.1504 974 811.2573 curveto
stroke
0 0 0 edgecolor
1018.0009 1397.7295 4 4 ellipse_path fill
1 setlinewidth
solid
0 0 0 edgecolor
1018.0009 1397.7295 4 4 ellipse_path stroke
0 0 0 edgecolor
8 /Roboto set_font
974 1135.1 moveto 70 ( author \(folders\)) alignedtext
grestore
% openlink_app_models_Folder->openlink_app_models_Experiment
gsave
1 setlinewidth
0 0 0 edgecolor
newpath 1139 1389.9944 moveto
1139 1365.9974 1139 1339.7923 1139 1315.8075 curveto
stroke
0 0 0 edgecolor
1139 1394.189 4 4 ellipse_path fill
1 setlinewidth
solid
0 0 0 edgecolor
1139 1394.189 4 4 ellipse_path stroke
0 0 0 edgecolor
1139 1311.765 4 4 ellipse_path fill
1 setlinewidth
solid
0 0 0 edgecolor
1139 1311.765 4 4 ellipse_path stroke
0 0 0 edgecolor
8 /Roboto set_font
1139 1355.1 moveto 86 ( experiment \(folder\)) alignedtext
grestore
% openlink_app_models_Project
gsave
0 0 1 nodecolor
newpath 921 1642.5 moveto
921 1873.5 lineto
1151 1873.5 lineto
1151 1642.5 lineto
closepath fill
0.43503 0.68605 0.33725 nodecolor
newpath 922 1851 moveto
922 1872 lineto
1150 1872 lineto
1150 1851 lineto
closepath fill
0 0 0 nodecolor
8 /Roboto set_font
984 1860 moveto 19 (      ) alignedtext
0 0 1 nodecolor
10 /Roboto set_font
1003 1860 moveto 85 (      Project      ) alignedtext
0 0 0 nodecolor
8 /Roboto set_font
924 1843.6 moveto 19 (      ) alignedtext
0 0 0 nodecolor
8 /Roboto set_font
943 1843.6 moveto 10 (id) alignedtext
0 0 0 nodecolor
8 /Roboto set_font
953 1843.6 moveto 19 (      ) alignedtext
0 0 0 nodecolor
8 /Roboto set_font
1037 1843.6 moveto 19 (      ) alignedtext
0 0 0 nodecolor
8 /Roboto set_font
1056 1843.6 moveto 46 (AutoField) alignedtext
0 0 0 nodecolor
8 /Roboto set_font
1102 1843.6 moveto 19 (      ) alignedtext
0 0 0 nodecolor
8 /Roboto set_font
924 1830.6 moveto 19 (      ) alignedtext
0 0 0 nodecolor
8 /Roboto set_font
943 1830.6 moveto 31 (author) alignedtext
0 0 0 nodecolor
8 /Roboto set_font
974 1830.6 moveto 19 (      ) alignedtext
0 0 0 nodecolor
8 /Roboto set_font
1037 1830.6 moveto 19 (      ) alignedtext
0 0 0 nodecolor
8 /Roboto set_font
1056 1830.6 moveto 73 (ForeignKey \(id\)) alignedtext
0 0 0 nodecolor
8 /Roboto set_font
1129 1830.6 moveto 19 (      ) alignedtext
0 0 0 nodecolor
8 /Roboto set_font
924 1817.6 moveto 19 (      ) alignedtext
0 0 0.48235 nodecolor
8 /Roboto set_font
943 1817.6 moveto 71 (documentation) alignedtext
0 0 0 nodecolor
8 /Roboto set_font
1014 1817.6 moveto 19 (      ) alignedtext
0 0 0 nodecolor
8 /Roboto set_font
1037 1817.6 moveto 19 (      ) alignedtext
0 0 0.48235 nodecolor
8 /Roboto set_font
1056 1817.6 moveto 73 (ForeignKey \(id\)) alignedtext
0 0 0 nodecolor
8 /Roboto set_font
1129 1817.6 moveto 19 (      ) alignedtext
0 0 0 nodecolor
8 /Roboto set_font
924 1804.6 moveto 19 (      ) alignedtext
0 0 0.48235 nodecolor
8 /Roboto set_font
943 1804.6 moveto 46 (download) alignedtext
0 0 0 nodecolor
8 /Roboto set_font
989 1804.6 moveto 19 (      ) alignedtext
0 0 0 nodecolor
8 /Roboto set_font
1037 1804.6 moveto 19 (      ) alignedtext
0 0 0.48235 nodecolor
8 /Roboto set_font
1056 1804.6 moveto 73 (ForeignKey \(id\)) alignedtext
0 0 0 nodecolor
8 /Roboto set_font
1129 1804.6 moveto 19 (      ) alignedtext
0 0 0 nodecolor
8 /Roboto set_font
924 1791.6 moveto 19 (      ) alignedtext
0 0 0.48235 nodecolor
8 /Roboto set_font
943 1791.6 moveto 18 (link) alignedtext
0 0 0 nodecolor
8 /Roboto set_font
961 1791.6 moveto 19 (      ) alignedtext
0 0 0 nodecolor
8 /Roboto set_font
1037 1791.6 moveto 19 (      ) alignedtext
0 0 0.48235 nodecolor
8 /Roboto set_font
1056 1791.6 moveto 73 (ForeignKey \(id\)) alignedtext
0 0 0 nodecolor
8 /Roboto set_font
1129 1791.6 moveto 19 (      ) alignedtext
0 0 0 nodecolor
8 /Roboto set_font
924 1778.6 moveto 19 (      ) alignedtext
0 0 0.48235 nodecolor
8 /Roboto set_font
943 1778.6 moveto 56 (date_created) alignedtext
0 0 0 nodecolor
8 /Roboto set_font
999 1778.6 moveto 19 (      ) alignedtext
0 0 0 nodecolor
8 /Roboto set_font
1037 1778.6 moveto 19 (      ) alignedtext
0 0 0.48235 nodecolor
8 /Roboto set_font
1056 1778.6 moveto 60 (DateTimeField) alignedtext
0 0 0 nodecolor
8 /Roboto set_font
1116 1778.6 moveto 19 (      ) alignedtext
0 0 0 nodecolor
8 /Roboto set_font
924 1765.6 moveto 19 (      ) alignedtext
0 0 0.48235 nodecolor
8 /Roboto set_font
943 1765.6 moveto 61 (date_modified) alignedtext
0 0 0 nodecolor
8 /Roboto set_font
1004 1765.6 moveto 19 (      ) alignedtext
0 0 0 nodecolor
8 /Roboto set_font
1037 1765.6 moveto 19 (      ) alignedtext
0 0 0.48235 nodecolor
8 /Roboto set_font
1056 1765.6 moveto 60 (DateTimeField) alignedtext
0 0 0 nodecolor
8 /Roboto set_font
1116 1765.6 moveto 19 (      ) alignedtext
0 0 0 nodecolor
8 /Roboto set_font
924 1752.6 moveto 19 (      ) alignedtext
0 0 0 nodecolor
8 /Roboto set_font
943 1752.6 moveto 47 (description) alignedtext
0 0 0 nodecolor
8 /Roboto set_font
990 1752.6 moveto 19 (      ) alignedtext
0 0 0 nodecolor
8 /Roboto set_font
1037 1752.6 moveto 19 (      ) alignedtext
0 0 0 nodecolor
8 /Roboto set_font
1056 1752.6 moveto 37 (TextField) alignedtext
0 0 0 nodecolor
8 /Roboto set_font
1093 1752.6 moveto 19 (      ) alignedtext
0 0 0 nodecolor
8 /Roboto set_font
924 1739.6 moveto 19 (      ) alignedtext
0 0 0 nodecolor
8 /Roboto set_font
943 1739.6 moveto 46 (homepage) alignedtext
0 0 0 nodecolor
8 /Roboto set_font
989 1739.6 moveto 19 (      ) alignedtext
0 0 0 nodecolor
8 /Roboto set_font
1037 1739.6 moveto 19 (      ) alignedtext
0 0 0 nodecolor
8 /Roboto set_font
1056 1739.6 moveto 36 (URLField) alignedtext
0 0 0 nodecolor
8 /Roboto set_font
1092 1739.6 moveto 19 (      ) alignedtext
0 0 0 nodecolor
8 /Roboto set_font
924 1726.6 moveto 19 (      ) alignedtext
0 0 0.48235 nodecolor
8 /Roboto set_font
943 1726.6 moveto 31 (id_dmp) alignedtext
0 0 0 nodecolor
8 /Roboto set_font
974 1726.6 moveto 19 (      ) alignedtext
0 0 0 nodecolor
8 /Roboto set_font
1037 1726.6 moveto 19 (      ) alignedtext
0 0 0.48235 nodecolor
8 /Roboto set_font
1056 1726.6 moveto 40 (CharField) alignedtext
0 0 0 nodecolor
8 /Roboto set_font
1096 1726.6 moveto 19 (      ) alignedtext
0 0 0 nodecolor
8 /Roboto set_font
924 1713.6 moveto 19 (      ) alignedtext
0 0 0.48235 nodecolor
8 /Roboto set_font
943 1713.6 moveto 45 (id_labguru) alignedtext
0 0 0 nodecolor
8 /Roboto set_font
988 1713.6 moveto 19 (      ) alignedtext
0 0 0 nodecolor
8 /Roboto set_font
1037 1713.6 moveto 19 (      ) alignedtext
0 0 0.48235 nodecolor
8 /Roboto set_font
1056 1713.6 moveto 40 (CharField) alignedtext
0 0 0 nodecolor
8 /Roboto set_font
1096 1713.6 moveto 19 (      ) alignedtext
0 0 0 nodecolor
8 /Roboto set_font
924 1700.6 moveto 19 (      ) alignedtext
0 0 0.48235 nodecolor
8 /Roboto set_font
943 1700.6 moveto 40 (id_omero) alignedtext
0 0 0 nodecolor
8 /Roboto set_font
983 1700.6 moveto 19 (      ) alignedtext
0 0 0 nodecolor
8 /Roboto set_font
1037 1700.6 moveto 19 (      ) alignedtext
0 0 0.48235 nodecolor
8 /Roboto set_font
1056 1700.6 moveto 40 (CharField) alignedtext
0 0 0 nodecolor
8 /Roboto set_font
1096 1700.6 moveto 19 (      ) alignedtext
0 0 0 nodecolor
8 /Roboto set_font
924 1687.6 moveto 19 (      ) alignedtext
0 0 0.48235 nodecolor
8 /Roboto set_font
943 1687.6 moveto 41 (keywords) alignedtext
0 0 0 nodecolor
8 /Roboto set_font
984 1687.6 moveto 19 (      ) alignedtext
0 0 0 nodecolor
8 /Roboto set_font
1037 1687.6 moveto 19 (      ) alignedtext
0 0 0.48235 nodecolor
8 /Roboto set_font
1056 1687.6 moveto 40 (CharField) alignedtext
0 0 0 nodecolor
8 /Roboto set_font
1096 1687.6 moveto 19 (      ) alignedtext
0 0 0 nodecolor
8 /Roboto set_font
924 1674.6 moveto 19 (      ) alignedtext
0 0 0 nodecolor
8 /Roboto set_font
943 1674.6 moveto 25 (name) alignedtext
0 0 0 nodecolor
8 /Roboto set_font
968 1674.6 moveto 19 (      ) alignedtext
0 0 0 nodecolor
8 /Roboto set_font
1037 1674.6 moveto 19 (      ) alignedtext
0 0 0 nodecolor
8 /Roboto set_font
1056 1674.6 moveto 40 (CharField) alignedtext
0 0 0 nodecolor
8 /Roboto set_font
1096 1674.6 moveto 19 (      ) alignedtext
0 0 0 nodecolor
8 /Roboto set_font
924 1661.6 moveto 19 (      ) alignedtext
0 0 0 nodecolor
8 /Roboto set_font
943 1661.6 moveto 12 (url) alignedtext
0 0 0 nodecolor
8 /Roboto set_font
955 1661.6 moveto 19 (      ) alignedtext
0 0 0 nodecolor
8 /Roboto set_font
1037 1661.6 moveto 19 (      ) alignedtext
0 0 0 nodecolor
8 /Roboto set_font
1056 1661.6 moveto 36 (URLField) alignedtext
0 0 0 nodecolor
8 /Roboto set_font
1092 1661.6 moveto 19 (      ) alignedtext
0 0 0 nodecolor
8 /Roboto set_font
924 1648.6 moveto 19 (      ) alignedtext
0 0 0.48235 nodecolor
8 /Roboto set_font
943 1648.6 moveto 32 (version) alignedtext
0 0 0 nodecolor
8 /Roboto set_font
975 1648.6 moveto 19 (      ) alignedtext
0 0 0 nodecolor
8 /Roboto set_font
1037 1648.6 moveto 19 (      ) alignedtext
0 0 0.48235 nodecolor
8 /Roboto set_font
1056 1648.6 moveto 40 (CharField) alignedtext
0 0 0 nodecolor
8 /Roboto set_font
1096 1648.6 moveto 19 (      ) alignedtext
1 setlinewidth
solid
0 0 0 nodecolor
newpath 921 1642.5 moveto
921 1873.5 lineto
1151 1873.5 lineto
1151 1642.5 lineto
closepath stroke
grestore
% openlink_app_models_Project->django_contrib_auth_models_User
gsave
1 setlinewidth
0 0 0 edgecolor
newpath 1166.2335 1671.6849 moveto
1189.4307 1659.0352 1213.8996 1647.3211 1238 1638.5 curveto
1295.5678 1617.4293 1510 1653.8027 1510 1592.5 curveto
1510 1592.5 1510 1592.5 1510 968 curveto
1510 874.7254 1239.4604 788.5571 1082.7905 746.477 curveto
stroke
0 0 0 edgecolor
1162.5782 1673.7042 4 4 ellipse_path fill
1 setlinewidth
solid
0 0 0 edgecolor
1162.5782 1673.7042 4 4 ellipse_path stroke
0 0 0 edgecolor
8 /Roboto set_font
1510 1328.1 moveto 70 ( author \(project\)) alignedtext
grestore
% openlink_app_models_Project->openlink_app_models_Publication
gsave
1 setlinewidth
0 0 0 edgecolor
newpath 1165.7639 1649.6737 moveto
1210.3171 1612.4809 1258.8419 1571.9726 1298.2333 1539.0889 curveto
stroke
0 0 0 edgecolor
1162.5405 1652.3645 4 4 ellipse_path fill
1 setlinewidth
solid
0 0 0 edgecolor
1162.5405 1652.3645 4 4 ellipse_path stroke
0 0 0 edgecolor
1301.4042 1536.4418 4 4 ellipse_path fill
1 setlinewidth
solid
0 0 0 edgecolor
1301.4042 1536.4418 4 4 ellipse_path stroke
0 0 0 edgecolor
8 /Roboto set_font
1243 1590.6 moveto 88 ( publication \(project\)) alignedtext
grestore
% openlink_app_models_Project->openlink_app_models_Download
gsave
1 setlinewidth
0 0 0 edgecolor
newpath 906.2026 1658.651 moveto
848.5424 1614.5171 782.8912 1564.2666 734.3443 1527.108 curveto
stroke
0 0 0 edgecolor
909.6558 1661.2941 4 4 ellipse_path fill
1 setlinewidth
solid
0 0 0 edgecolor
909.6558 1661.2941 4 4 ellipse_path stroke
0 0 0 edgecolor
8 /Roboto set_font
830 1590.6 moveto 82 ( download \(project\)) alignedtext
grestore
% openlink_app_models_Project->openlink_app_models_Link
gsave
1 setlinewidth
0 0 0 edgecolor
newpath 973.6594 1630.8697 moveto
954.4492 1591.6946 934.4602 1550.9313 919.5732 1520.5724 curveto
stroke
0 0 0 edgecolor
975.4748 1634.5718 4 4 ellipse_path fill
1 setlinewidth
solid
0 0 0 edgecolor
975.4748 1634.5718 4 4 ellipse_path stroke
0 0 0 edgecolor
8 /Roboto set_font
959 1590.6 moveto 56 ( link \(project\)) alignedtext
grestore
% openlink_app_models_Project->openlink_app_models_Documentation
gsave
1 setlinewidth
0 0 0 edgecolor
newpath 905.2326 1707.9063 moveto
805.2392 1668.0655 664.9644 1608.8294 547 1546.5 curveto
539.3499 1542.4579 531.5376 1538.0892 523.7601 1533.5658 curveto
stroke
0 0 0 edgecolor
909.2476 1709.5025 4 4 ellipse_path fill
1 setlinewidth
solid
0 0 0 edgecolor
909.2476 1709.5025 4 4 ellipse_path stroke
0 0 0 edgecolor
8 /Roboto set_font
657 1590.6 moveto 105 ( documentation \(project\)) alignedtext
grestore
% openlink_app_models_Project->openlink_app_models_Folder
gsave
1 setlinewidth
0 0 0 edgecolor
newpath 1081.9934 1630.5134 moveto
1091.3109 1604.6869 1100.8715 1578.1863 1109.4366 1554.4452 curveto
stroke
0 0 0 edgecolor
1080.5911 1634.4006 4 4 ellipse_path fill
1 setlinewidth
solid
0 0 0 edgecolor
1080.5911 1634.4006 4 4 ellipse_path stroke
0 0 0 edgecolor
1110.8234 1550.6011 4 4 ellipse_path fill
1 setlinewidth
solid
0 0 0 edgecolor
1110.8234 1550.6011 4 4 ellipse_path stroke
0 0 0 edgecolor
8 /Roboto set_font
1098 1590.6 moveto 67 ( folder \(project\)) alignedtext
grestore
% django_contrib_admin_models_LogEntry
gsave
0 0 1 nodecolor
newpath 24 904.5 moveto
24 1031.5 lineto
290 1031.5 lineto
290 904.5 lineto
closepath fill
0.43503 0.68605 0.33725 nodecolor
newpath 25 1009 moveto
25 1030 lineto
289 1030 lineto
289 1009 lineto
closepath fill
0 0 0 nodecolor
8 /Roboto set_font
100.5 1018 moveto 19 (      ) alignedtext
0 0 1 nodecolor
10 /Roboto set_font
119.5 1018 moveto 94 (      LogEntry      ) alignedtext
0 0 0 nodecolor
8 /Roboto set_font
27 1001.6 moveto 19 (      ) alignedtext
0 0 0 nodecolor
8 /Roboto set_font
46 1001.6 moveto 10 (id) alignedtext
0 0 0 nodecolor
8 /Roboto set_font
56 1001.6 moveto 19 (      ) alignedtext
0 0 0 nodecolor
8 /Roboto set_font
143 1001.6 moveto 19 (      ) alignedtext
0 0 0 nodecolor
8 /Roboto set_font
162 1001.6 moveto 46 (AutoField) alignedtext
0 0 0 nodecolor
8 /Roboto set_font
208 1001.6 moveto 19 (      ) alignedtext
0 0 0 nodecolor
8 /Roboto set_font
27 988.6 moveto 19 (      ) alignedtext
0 0 0.48235 nodecolor
8 /Roboto set_font
46 988.6 moveto 61 (content_type) alignedtext
0 0 0 nodecolor
8 /Roboto set_font
107 988.6 moveto 19 (      ) alignedtext
0 0 0 nodecolor
8 /Roboto set_font
143 988.6 moveto 19 (      ) alignedtext
0 0 0.48235 nodecolor
8 /Roboto set_font
162 988.6 moveto 73 (ForeignKey \(id\)) alignedtext
0 0 0 nodecolor
8 /Roboto set_font
235 988.6 moveto 19 (      ) alignedtext
0 0 0 nodecolor
8 /Roboto set_font
27 975.6 moveto 19 (      ) alignedtext
0 0 0 nodecolor
8 /Roboto set_font
46 975.6 moveto 21 (user) alignedtext
0 0 0 nodecolor
8 /Roboto set_font
67 975.6 moveto 19 (      ) alignedtext
0 0 0 nodecolor
8 /Roboto set_font
143 975.6 moveto 19 (      ) alignedtext
0 0 0 nodecolor
8 /Roboto set_font
162 975.6 moveto 73 (ForeignKey \(id\)) alignedtext
0 0 0 nodecolor
8 /Roboto set_font
235 975.6 moveto 19 (      ) alignedtext
0 0 0 nodecolor
8 /Roboto set_font
27 962.6 moveto 19 (      ) alignedtext
0 0 0 nodecolor
8 /Roboto set_font
46 962.6 moveto 46 (action_flag) alignedtext
0 0 0 nodecolor
8 /Roboto set_font
92 962.6 moveto 19 (      ) alignedtext
0 0 0 nodecolor
8 /Roboto set_font
143 962.6 moveto 19 (      ) alignedtext
0 0 0 nodecolor
8 /Roboto set_font
162 962.6 moveto 106 (PositiveSmallIntegerField) alignedtext
0 0 0 nodecolor
8 /Roboto set_font
268 962.6 moveto 19 (      ) alignedtext
0 0 0 nodecolor
8 /Roboto set_font
27 949.6 moveto 19 (      ) alignedtext
0 0 0 nodecolor
8 /Roboto set_font
46 949.6 moveto 49 (action_time) alignedtext
0 0 0 nodecolor
8 /Roboto set_font
95 949.6 moveto 19 (      ) alignedtext
0 0 0 nodecolor
8 /Roboto set_font
143 949.6 moveto 19 (      ) alignedtext
0 0 0 nodecolor
8 /Roboto set_font
162 949.6 moveto 60 (DateTimeField) alignedtext
0 0 0 nodecolor
8 /Roboto set_font
222 949.6 moveto 19 (      ) alignedtext
0 0 0 nodecolor
8 /Roboto set_font
27 936.6 moveto 19 (      ) alignedtext
0 0 0.48235 nodecolor
8 /Roboto set_font
46 936.6 moveto 74 (change_message) alignedtext
0 0 0 nodecolor
8 /Roboto set_font
120 936.6 moveto 19 (      ) alignedtext
0 0 0 nodecolor
8 /Roboto set_font
143 936.6 moveto 19 (      ) alignedtext
0 0 0.48235 nodecolor
8 /Roboto set_font
162 936.6 moveto 37 (TextField) alignedtext
0 0 0 nodecolor
8 /Roboto set_font
199 936.6 moveto 19 (      ) alignedtext
0 0 0 nodecolor
8 /Roboto set_font
27 923.6 moveto 19 (      ) alignedtext
0 0 0.48235 nodecolor
8 /Roboto set_font
46 923.6 moveto 38 (object_id) alignedtext
0 0 0 nodecolor
8 /Roboto set_font
84 923.6 moveto 19 (      ) alignedtext
0 0 0 nodecolor
8 /Roboto set_font
143 923.6 moveto 19 (      ) alignedtext
0 0 0.48235 nodecolor
8 /Roboto set_font
162 923.6 moveto 37 (TextField) alignedtext
0 0 0 nodecolor
8 /Roboto set_font
199 923.6 moveto 19 (      ) alignedtext
0 0 0 nodecolor
8 /Roboto set_font
27 910.6 moveto 19 (      ) alignedtext
0 0 0 nodecolor
8 /Roboto set_font
46 910.6 moveto 49 (object_repr) alignedtext
0 0 0 nodecolor
8 /Roboto set_font
95 910.6 moveto 19 (      ) alignedtext
0 0 0 nodecolor
8 /Roboto set_font
143 910.6 moveto 19 (      ) alignedtext
0 0 0 nodecolor
8 /Roboto set_font
162 910.6 moveto 40 (CharField) alignedtext
0 0 0 nodecolor
8 /Roboto set_font
202 910.6 moveto 19 (      ) alignedtext
1 setlinewidth
solid
0 0 0 nodecolor
newpath 24 904.5 moveto
24 1031.5 lineto
290 1031.5 lineto
290 904.5 lineto
closepath stroke
grestore
% django_contrib_admin_models_LogEntry->django_contrib_auth_models_User
gsave
1 setlinewidth
0 0 0 edgecolor
newpath 262.3938 896.4354 moveto
277.9374 887.7067 294.0849 879.5684 310 873 curveto
497.2951 795.7003 731.1418 753.1298 865.4468 733.4152 curveto
stroke
0 0 0 edgecolor
258.7719 898.5018 4 4 ellipse_path fill
1 setlinewidth
solid
0 0 0 edgecolor
258.7719 898.5018 4 4 ellipse_path stroke
0 0 0 edgecolor
8 /Roboto set_font
344 856.6 moveto 67 ( user \(logentry\)) alignedtext
grestore
% django_contrib_admin_models_LogEntry->django_contrib_contenttypes_models_ContentType
gsave
1 setlinewidth
0 0 0 edgecolor
newpath 187.3676 892.7602 moveto
204.2963 844.1531 222 779.0785 222 719.5 curveto
222 719.5 222 719.5 222 197.5 curveto
222 139.3693 277.412 101.9912 330.3348 79.5485 curveto
stroke
0 0 0 edgecolor
185.9937 896.6455 4 4 ellipse_path fill
1 setlinewidth
solid
0 0 0 edgecolor
185.9937 896.6455 4 4 ellipse_path stroke
0 0 0 edgecolor
8 /Roboto set_font
222 449.1 moveto 103 ( content_type \(logentry\)) alignedtext
grestore
endpage
showpage
grestore
%%PageTrailer
%%EndPage: 1
%%Trailer
%%Pages: 1
%%BoundingBox: 36 36 1952 1965
end
restore
%%EOF
